AccB	b3255	-
AccB	b3256	-
AcrR	b0464	-
AcrR	b1531	-
AcrR	b1530	-
AcrR	b4063	-
AcrR	b4062	-
AcrR	b0463	-
AcrR	b3699	-
AcrR	b1532	-
AcrR	b4439	-
Ada	b2213	+
Ada	b2213	-
Ada	b4187	+
Ada	b2068	+
Ada	b2212	+
Ada	b2212	-
AdiY	b3516	+
AdiY	b4117	+
AdiY	b3517	+
AdiY	b1493	+
AdiY	b1492	+
AdiY	b3212	+
AdiY	b3213	+
AdiY	b3214	+
AgaR	b3131	-
AgaR	b3135	-
AgaR	b3138	-
AgaR	b3139	-
AgaR	b3140	-
AgaR	b3141	-
AgaR	b3136	-
AgaR	b3133	-
AgaR	b3134	-
AgaR	b3137	-
AgaR	b3132	-
AidB	b4187	-
AlaS	b2697	-
AllR	b0504	-
AllR	b0505	-
AllR	b0512	-
AllR	b0507	-
AllR	b0514	-
AllR	b0509	-
AllR	b0508	-
AllR	b0511	-
AllR	b0513	-
AllS	b0516	+
AllS	b0517	+
AllS	b0515	+
AlsR	b4089	-
AlsR	b4087	-
AlsR	b4088	-
AlsR	b4086	-
AlsR	b4085	-
AlsR	b4090	-
AppY	b0980	+
AppY	b0979	+
AppY	b0978	+
AppY	b4592	+
AppY	b0972	+
AppY	b0973	+
AppY	b0974	+
AppY	b0975	+
AppY	b0976	+
AppY	b0977	+
AraC	b0064	+
AraC	b0064	-
AraC	b0062	+
AraC	b0062	-
AraC	b0063	+
AraC	b0063	-
AraC	b0061	+
AraC	b0061	-
AraC	b2841	+
AraC	b1901	+
AraC	b1900	+
AraC	b4460	+
AraC	b0396	+
AraC	b3565	-
AraC	b3564	-
AraC	b1497	-
AraC	b1498	-
AraC	b2840	+
ArcA	b0313	-
ArcA	b0620	+
ArcA	b1334	-
ArcA	b3512	+
ArcA	b3516	+
ArcA	b3604	-
ArcA	b1299	-
ArcA	b3569	+
ArcA	b4015	-
ArcA	b4014	-
ArcA	b0114	-
ArcA	b0115	-
ArcA	b4016	-
ArcA	b2296	+
ArcA	b1276	-
ArcA	b0118	-
ArcA	b1415	-
ArcA	b0980	+
ArcA	b0979	+
ArcA	b0978	+
ArcA	b4592	+
ArcA	b4450	-
ArcA	b0311	-
ArcA	b0312	-
ArcA	b0314	-
ArcA	b4131	-
ArcA	b4132	-
ArcA	b0039	+
ArcA	b0038	+
ArcA	b0037	+
ArcA	b0036	+
ArcA	b0035	+
ArcA	b0040	+
ArcA	b0618	-
ArcA	b0617	-
ArcA	b0616	-
ArcA	b0615	-
ArcA	b0613	-
ArcA	b0614	-
ArcA	b0733	+
ArcA	b0734	+
ArcA	b0886	+
ArcA	b0887	+
ArcA	b0432	-
ArcA	b0431	-
ArcA	b0430	-
ArcA	b0429	-
ArcA	b0428	-
ArcA	b3528	-
ArcA	b0621	+
ArcA	b0619	+
ArcA	b3845	-
ArcA	b3846	-
ArcA	b1805	-
ArcA	b0221	-
ArcA	b3081	-
ArcA	b2342	-
ArcA	b2341	-
ArcA	b2344	-
ArcA	b0904	+
ArcA	b1612	-
ArcA	b4122	+
ArcA	b1611	-
ArcA	b3517	+
ArcA	b2094	-
ArcA	b2093	-
ArcA	b2092	-
ArcA	b2091	-
ArcA	b2096	-
ArcA	b2095	-
ArcA	b1101	-
ArcA	b2976	-
ArcA	b2979	-
ArcA	b4468	-
ArcA	b4467	-
ArcA	b2977	-
ArcA	b2241	-
ArcA	b2242	-
ArcA	b2243	-
ArcA	b3426	-
ArcA	b0720	-
ArcA	b2579	+
ArcA	b1210	+
ArcA	b0972	+
ArcA	b0973	+
ArcA	b0974	+
ArcA	b0975	+
ArcA	b0976	+
ArcA	b0977	+
ArcA	b2996	-
ArcA	b2995	-
ArcA	b2994	-
ArcA	b2993	-
ArcA	b2992	-
ArcA	b2991	-
ArcA	b2990	-
ArcA	b2997	-
ArcA	b1136	-
ArcA	b1160	+
ArcA	b3605	-
ArcA	b3603	-
ArcA	b0116	-
ArcA	b3236	-
ArcA	b0827	+
ArcA	b0826	+
ArcA	b1109	-
ArcA	b2277	-
ArcA	b2287	-
ArcA	b2286	-
ArcA	b2285	-
ArcA	b2284	-
ArcA	b2283	-
ArcA	b2282	-
ArcA	b2281	-
ArcA	b2280	-
ArcA	b2279	-
ArcA	b2278	-
ArcA	b2277	-
ArcA	b2276	-
ArcA	b1243	-
ArcA	b1244	-
ArcA	b1245	-
ArcA	b1246	-
ArcA	b1247	-
ArcA	b0903	+
ArcA	b1211	+
ArcA	b1212	+
ArcA	b1101	-
ArcA	b1297	-
ArcA	b1301	-
ArcA	b1300	-
ArcA	b1298	-
ArcA	b1302	-
ArcA	b1296	-
ArcA	b3907	-
ArcA	b3317	-
ArcA	b3320	-
ArcA	b3319	-
ArcA	b3313	-
ArcA	b3315	-
ArcA	b3318	-
ArcA	b3312	-
ArcA	b2741	-
ArcA	b3314	-
ArcA	b3321	-
ArcA	b3311	-
ArcA	b3316	-
ArcA	b1012	+
ArcA	b1011	+
ArcA	b1010	+
ArcA	b1009	+
ArcA	b1008	+
ArcA	b1007	+
ArcA	b1006	+
ArcA	b0723	+
ArcA	b0723	-
ArcA	b0724	+
ArcA	b0724	-
ArcA	b0721	+
ArcA	b0721	-
ArcA	b0722	+
ArcA	b0722	-
ArcA	b3908	-
ArcA	sroD	-
ArcA	b4059	-
ArcA	b0726	+
ArcA	b0726	-
ArcA	b0727	+
ArcA	b0727	-
ArcA	b0728	+
ArcA	b0728	-
ArcA	b0729	+
ArcA	b0729	-
ArcA	b0605	-
ArcA	b4240	+
ArcA	b4239	+
ArcA	b4040	-
ArcA	b4039	-
ArcA	b4058	-
ArcA	b0602	+
ArcA	b1528	-
ArgP	b2916	-
ArgP	b3702	+
ArgP	b2923	+
ArgP	b0031	+
ArgP	b0166	+
ArgP	b3701	+
ArgP	b1761	+
ArgP	b2838	+
ArgP	b4024	+
ArgP	b2156	+
ArgP	b2234	+
ArgP	b2235	+
ArgP	b3700	+
ArgP	b2236	+
ArgR	b3237	-
ArgR	b2818	-
ArgR	b3959	-
ArgR	b3958	-
ArgR	b3359	-
ArgR	b3957	-
ArgR	b0273	-
ArgR	b3172	-
ArgR	b3960	-
ArgR	b4254	-
ArgR	b0863	-
ArgR	b0860	-
ArgR	b0861	-
ArgR	b0864	-
ArgR	b0862	-
ArgR	b1747	+
ArgR	b1745	+
ArgR	b1748	+
ArgR	b1746	+
ArgR	b1744	+
ArgR	b0032	-
ArgR	b0033	-
ArgR	b3212	-
ArgR	b3213	-
ArgR	b3214	-
ArgR	b2309	-
ArgR	b2307	-
ArgR	b2306	-
ArgR	b2308	-
ArgR	b3168	-
ArgR	b0874	-
ArgR	b3171	-
ArgR	b3169	-
ArgR	b3164	-
ArgR	b3167	-
ArgR	b3170	-
ArgR	b3165	-
ArgR	b3166	-
ArsR	b3501	-
ArsR	b3502	-
ArsR	b3503	-
AscG	b0330	-
AscG	b2716	-
AscG	b2715	-
AscG	b0473	-
AscG	b0820	-
AsnC	b3743	-
AsnC	b3744	+
AsnC	b3742	-
AsnC	b3741	-
AtoC	b2222	+
AtoC	b2224	+
AtoC	b2221	+
AtoC	b2223	+
BaeR	b2079	+
BaeR	b2470	+
BaeR	b2078	+
BaeR	b2074	+
BaeR	b2075	+
BaeR	b2076	+
BaeR	b2077	+
BaeR	b1743	+
BasR	b1040	+
BasR	b1014	-
BasR	b3025	+
BasR	b1039	+
BasR	b1038	+
BasR	b1037	+
BasR	b1552	+
BasR	b4042	+
BasR	b4312	+
BasR	b0460	+
BasR	b3026	+
BasR	b0461	+
BasR	b3207	-
BetI	b0313	-
BetI	b0311	-
BetI	b0312	-
BetI	b0314	-
BirA	b0774	-
BirA	b0775	-
BirA	b0777	-
BirA	b0778	-
BirA	b0776	-
BluR	b1166	-
BluR	b1164	-
BluR	b1165	-
BluR	b1167	-
BolA	b4150	+-
BolA	b0839	+-
CadC	b4133	+
CadC	b4131	+
CadC	b4132	+
CaiF	b0039	+
CaiF	b0038	+
CaiF	b0037	+
CaiF	b0036	+
CaiF	b0035	+
CaiF	b0040	+
CaiF	b0041	+
CaiF	b0042	+
CaiF	b0043	+
CaiF	b0044	+
Cbl	b0936	+
Cbl	b0933	+
Cbl	b0934	+
Cbl	b0935	+
Cbl	b0937	+
Cbl	b0365	+
Cbl	b0366	+
Cbl	b0367	+
Cbl	b0368	+
CdaR	b0162	+
CdaR	b3128	+
CdaR	b3124	+
CdaR	b3126	+
CdaR	b3127	+
CdaR	b3125	+
CdaR	b2787	+
CdaR	b2789	+
CdaR	b2788	+
CdaR	b3123	+
ChbR	b1735	+
ChbR	b1735	-
ChbR	b1736	+
ChbR	b1736	-
ChbR	b1738	+
ChbR	b1738	-
ChbR	b1737	+
ChbR	b1737	-
ChbR	b1734	+
ChbR	b1734	-
ChbR	b1733	+
ChbR	b1733	-
ComR	b1112	-
CpxR	b2079	+
CpxR	b3912	+
CpxR	b1040	-
CpxR	b1531	+
CpxR	b1530	+
CpxR	b2470	+
CpxR	b0754	+
CpxR	b3057	+
CpxR	b2078	+
CpxR	b2617	-
CpxR	b1888	-
CpxR	b1887	-
CpxR	b3911	+
CpxR	b4484	+
CpxR	b1042	-
CpxR	b1041	-
CpxR	b1043	-
CpxR	b1039	-
CpxR	b1038	-
CpxR	b1037	-
CpxR	b4438	-
CpxR	b0161	+
CpxR	b1535	+
CpxR	b3860	+
CpxR	b2893	+
CpxR	b1016	-
CpxR	b1017	-
CpxR	b0180	+
CpxR	b1902	+
CpxR	b0460	+
CpxR	b1113	+
CpxR	b0181	+
CpxR	b0179	+
CpxR	b1532	+
CpxR	b2074	+
CpxR	b2075	+
CpxR	b2076	+
CpxR	b2077	+
CpxR	b1890	-
CpxR	b1889	-
CpxR	b0577	-
CpxR	b3096	+
CpxR	b2215	+
CpxR	b0929	-
CpxR	b3363	+
CpxR	b0441	+
CpxR	b4160	-
CpxR	b3859	+
CpxR	b2573	-
CpxR	b3461	+
CpxR	b4431	+
CpxR	b2572	-
CpxR	b2571	-
CpxR	b2570	-
CpxR	b0377	+
CpxR	b0178	+
CpxR	b4392	+
CpxR	b1743	+
CpxR	b0461	+
CpxR	b4355	-
CpxR	b2580	-
CpxR	b0378	+
CpxR	b0970	+
CpxR	b1846	+
CpxR	b2665	+
CpxR	b3688	+
CpxR	b2666	+
CpxR	b3095	+
Cra	b0313	+
Cra	b3357	+
Cra	b1040	+
Cra	b2980	-
Cra	b1531	-
Cra	b1530	-
Cra	b3601	-
Cra	b0113	-
Cra	b4015	+
Cra	b4014	+
Cra	b0114	-
Cra	b0115	-
Cra	b4016	+
Cra	b1276	+
Cra	b0118	-
Cra	b1241	-
Cra	b0112	+
Cra	b0311	+
Cra	b0312	+
Cra	b0314	+
Cra	b2417	+
Cra	b2417	-
Cra	b1039	+
Cra	b1038	+
Cra	b1037	+
Cra	b0733	+
Cra	b0734	+
Cra	b0432	-
Cra	b0431	-
Cra	b0430	-
Cra	b0429	-
Cra	b0428	-
Cra	b3368	-
Cra	b1850	-
Cra	b1851	-
Cra	b2779	-
Cra	b3613	-
Cra	b2927	-
Cra	b2925	-
Cra	b2097	-
Cra	b2167	-
Cra	b2169	-
Cra	b2168	-
Cra	b1779	-
Cra	b2388	-
Cra	b3612	-
Cra	b2712	-
Cra	b1136	+
Cra	b0116	-
Cra	b1817	-
Cra	b1818	-
Cra	b1819	-
Cra	b1532	-
Cra	b4233	-
Cra	b3599	-
Cra	b3600	-
Cra	b3365	-
Cra	b3367	-
Cra	b3366	-
Cra	b3403	+
Cra	b0315	-
Cra	b3916	-
Cra	b2926	-
Cra	b0871	+
Cra	b3956	-
Cra	b1702	+
Cra	b0331	-
Cra	b0333	-
Cra	b0334	-
Cra	b0335	-
Cra	b2415	+
Cra	b2415	-
Cra	b2416	+
Cra	b2416	-
Cra	b1676	-
Cra	b0070	-
Cra	b4577	-
Cra	b4662	-
Cra	b3919	-
Cra	b1780	-
Cra	b3614	-
Cra	b1852	-
CreB	b4400	+
CreB	b4034	-
CreB	b4033	-
CreB	b4032	-
CreB	b2464	+
CRP	b0064	+
CRP	b0034	+
CRP	b1735	+
CRP	b1111	-
CRP	b3357	+
CRP	b3357	-
CRP	b1040	+
CRP	b3934	+-
CRP	b4124	+
CRP	b0620	-
CRP	b1384	+
CRP	b3261	+
CRP	b3261	+-
CRP	b1891	+
CRP	b1892	+
CRP	b2805	+
CRP	b0683	+
CRP	b3512	-
CRP	b3516	-
CRP	b2151	+
CRP	b2980	+
CRP	b3868	+
CRP	b3868	-
CRP	b3423	+
CRP	b2706	+
CRP	b4000	+
CRP	b0440	+
CRP	b2491	+
CRP	b4264	+
CRP	b0345	+
CRP	b1512	+
CRP	b1620	+
CRP	b1620	-
CRP	b3418	+
CRP	b1531	+
CRP	b1530	+
CRP	b2783	+
CRP	b4118	+
CRP	b0346	+
CRP	b1594	+
CRP	b1594	-
CRP	b3601	+
CRP	b0676	+-
CRP	b3405	+
CRP	b3405	-
CRP	b3961	+
CRP	b0113	+
CRP	b0330	+
CRP	b1299	-
CRP	b3753	+
CRP	b3906	+
CRP	b3905	+
CRP	b2707	+
CRP	b3118	+
CRP	b4324	+
CRP	b3569	+
CRP	b3574	-
CRP	b4004	+
CRP	b3241	+
CRP	b3240	+
CRP	b3243	-
CRP	b3242	+
CRP	b4015	-
CRP	b4014	-
CRP	b0114	+
CRP	b0115	+
CRP	b4016	-
CRP	b1276	+
CRP	b0118	+
CRP	b4069	+
CRP	b4067	+
CRP	b3072	+
CRP	b3135	+
CRP	b3133	+
CRP	b3134	+
CRP	b1002	+
CRP	b1415	+
CRP	b3588	+
CRP	b0110	-
CRP	b0111	-
CRP	b2957	+
CRP	b0062	+
CRP	b0063	+
CRP	b0061	+
CRP	b2841	+
CRP	b1901	+
CRP	b1900	+
CRP	b4460	+
CRP	b0396	+
CRP	b0396	-
CRP	b0191	-
CRP	b3172	+
CRP	b0908	-
CRP	b2716	+
CRP	b2715	+
CRP	b4139	+
CRP	b4663	-
CRP	b3721	+
CRP	b3722	+
CRP	b3723	+
CRP	b1112	-
CRP	b0039	+
CRP	b0038	+
CRP	b0037	+
CRP	b0036	+
CRP	b0035	+
CRP	b0040	+
CRP	b2755	-
CRP	b2754	-
CRP	b2760	-
CRP	b2759	-
CRP	b2758	-
CRP	b2757	-
CRP	b2756	-
CRP	b2143	+
CRP	b2143	+-
CRP	b2143	-
CRP	b1736	+
CRP	b1738	+
CRP	b1737	+
CRP	b1734	+
CRP	b1733	+
CRP	b0681	+
CRP	b2155	+
CRP	b0618	-
CRP	b0617	-
CRP	b0616	-
CRP	b0615	-
CRP	b0613	-
CRP	b0614	-
CRP	b4213	+
CRP	b2417	+
CRP	b2417	-
CRP	b1039	+
CRP	b1038	+
CRP	b1037	+
CRP	b2659	+
CRP	b2535	+
CRP	b0880	+
CRP	b0623	+
CRP	b0598	+
CRP	b3806	-
CRP	b4438	+
CRP	b0432	+
CRP	b0431	+
CRP	b0430	+
CRP	b0429	+
CRP	b0428	+
CRP	b3368	-
CRP	b1189	+
CRP	b1189	+-
CRP	b1190	+
CRP	b1190	+-
CRP	b3528	+
CRP	b4138	+
CRP	b4123	+
CRP	b4382	+
CRP	b4382	+-
CRP	b4383	+
CRP	b4383	+-
CRP	b4381	+
CRP	b4381	+-
CRP	b4384	+
CRP	b4384	+-
CRP	b0145	+
CRP	b0619	-
CRP	b2366	+
CRP	b2365	+
CRP	b3260	+
CRP	b3260	+-
CRP	b3076	+
CRP	b3077	+
CRP	b0596	+
CRP	b0595	+
CRP	b0593	+
CRP	b0583	+
CRP	b0594	+
CRP	b0597	+
CRP	b3404	+
CRP	b3404	-
CRP	b2927	+
CRP	b3093	+
CRP	b1805	+
CRP	b3081	+
CRP	b2344	+
CRP	b2925	+
CRP	b1385	+
CRP	b4291	+
CRP	b4290	+
CRP	b4289	+
CRP	b4288	+
CRP	b4287	+
CRP	b0584	+
CRP	b0805	+
CRP	b0041	+
CRP	b0042	+
CRP	b0043	+
CRP	b0044	+
CRP	b0904	+
CRP	b2492	+
CRP	b2800	+
CRP	b2802	+
CRP	b2803	+
CRP	b2799	+
CRP	b2801	+
CRP	b2804	+
CRP	b1612	+
CRP	b4122	+
CRP	b1611	+
CRP	b1611	?
CRP	b2661	+
CRP	b2663	+
CRP	b2662	+
CRP	b3517	-
CRP	b1493	-
CRP	b1492	-
CRP	b0759	+
CRP	b0759	-
CRP	b0757	+
CRP	b0757	-
CRP	b0756	+
CRP	b0756	-
CRP	b2943	+
CRP	b0758	+
CRP	b0758	-
CRP	b1779	+
CRP	b2094	+
CRP	b2093	+
CRP	b2092	+
CRP	b2091	+
CRP	b2096	+
CRP	b2095	+
CRP	b0124	-
CRP	b2904	+
CRP	b2903	+
CRP	b2905	+
CRP	b1761	-
CRP	b3429	+
CRP	b3430	+
CRP	b3428	+
CRP	b3049	+
CRP	b3870	+
CRP	b3870	-
CRP	b3869	+
CRP	b3869	-
CRP	b2241	+
CRP	b2242	+
CRP	b2243	+
CRP	b3426	+
CRP	b3425	+
CRP	b3927	+
CRP	b3424	+
CRP	b3926	+
CRP	b2239	+
CRP	b2240	+
CRP	b3925	+
CRP	b0720	+
CRP	b3212	-
CRP	b3213	-
CRP	b3214	-
CRP	b3437	+
CRP	b4321	+
CRP	b3415	+
CRP	b4476	+
CRP	b3413	+
CRP	b3608	+
CRP	b2579	+
CRP	b2614	+
CRP	b2507	+
CRP	b2508	+
CRP	b2708	+
CRP	b2231	+
CRP	b4175	-
CRP	b4174	-
CRP	b4173	-
CRP	b4172	-
CRP	b1182	+
CRP	b0107	+
CRP	b0106	+
CRP	b3395	+
CRP	b3394	+
CRP	b3393	+
CRP	b3392	+
CRP	b0125	+
CRP	b2481	+
CRP	b2482	+
CRP	b2483	+
CRP	b2484	+
CRP	b2485	+
CRP	b2486	+
CRP	b2487	+
CRP	b2488	+
CRP	b2489	+
CRP	b2490	+
CRP	b4267	+
CRP	b4268	+
CRP	b4266	+
CRP	b4265	+
CRP	b3671	+
CRP	b3670	+
CRP	b3168	-
CRP	b3672	+
CRP	b3132	+
CRP	b0342	+
CRP	b0342	-
CRP	b0343	+
CRP	b0343	-
CRP	b0344	+
CRP	b0344	-
CRP	b4036	+
CRP	b0819	-
CRP	b2660	+
CRP	b0116	+
CRP	b0116	-
CRP	b1513	+
CRP	b1516	+
CRP	b1514	+
CRP	b1515	+
CRP	b1517	+
CRP	b1518	+
CRP	b1511	+
CRP	b3580	+
CRP	b3580	?
CRP	b4034	+
CRP	b4033	+
CRP	b4032	+
CRP	b4035	+
CRP	b4037	+
CRP	b3571	+
CRP	b1621	+
CRP	b1622	+
CRP	b1613	+
CRP	b1613	-
CRP	b1817	+
CRP	b1818	+
CRP	b1819	+
CRP	b1532	+
CRP	b2782	+
CRP	b4426	+
CRP	b3236	+
CRP	b3513	-
CRP	b3514	-
CRP	b4119	+
CRP	b4120	+
CRP	b2942	-
CRP	b3171	-
CRP	b2149	+
CRP	b2150	+
CRP	b2148	+
CRP	b0347	+
CRP	b0348	+
CRP	b0349	+
CRP	b0350	+
CRP	b0352	+
CRP	b0351	+
CRP	b0763	+
CRP	b0764	+
CRP	b0765	+
CRP	b4233	+
CRP	b3599	+
CRP	b3600	+
CRP	b2429	+
CRP	b2428	+
CRP	b0109	+
CRP	b0677	+-
CRP	b0678	+-
CRP	b0679	+-
CRP	b3225	+
CRP	b4311	+
CRP	b3223	+
CRP	b3222	+
CRP	b4310	+
CRP	b4309	+
CRP	b3224	+
CRP	b2469	-
CRP	b3414	+
CRP	b3365	-
CRP	b3367	-
CRP	b3366	-
CRP	b0192	-
CRP	b0553	+
CRP	b2234	+
CRP	b2235	+
CRP	b2393	+
CRP	b2964	+
CRP	b2964	+-
CRP	b2964	-
CRP	b3169	-
CRP	b0957	+
CRP	b0929	+
CRP	b4376	-
CRP	b1388	+
CRP	b1389	+
CRP	b1390	+
CRP	b1391	+
CRP	b1392	+
CRP	b1393	+
CRP	b1394	+
CRP	b1395	+
CRP	b1396	+
CRP	b1397	+
CRP	b1398	+
CRP	b1387	+
CRP	b2584	+
CRP	b3403	+
CRP	b3403	-
CRP	b0903	+
CRP	b2926	+
CRP	b0931	-
CRP	b3164	-
CRP	b0108	+
CRP	b3363	+-
CRP	b3363	-
CRP	b2147	+
CRP	b2146	+
CRP	b4201	+
CRP	b4111	+
CRP	b4111	-
CRP	b0331	+
CRP	b0333	+
CRP	b0334	+
CRP	b0335	+
CRP	b4030	-
CRP	b1101	+
CRP	b2415	+
CRP	b2415	-
CRP	b2416	+
CRP	b2416	-
CRP	b1015	-
CRP	b1301	-
CRP	b1300	-
CRP	b1298	-
CRP	b1302	-
CRP	b2597	+
CRP	b3167	-
CRP	b3749	+
CRP	b3751	+
CRP	b3750	+
CRP	b3748	+
CRP	b3752	+
CRP	b2784	+
CRP	b3903	+
CRP	b3904	+
CRP	b3902	+
CRP	b3907	+
CRP	b3170	-
CRP	b0953	+
CRP	b0189	-
CRP	b4203	+
CRP	b3231	-
CRP	b3461	+
CRP	b3461	+-
CRP	b3461	-
CRP	b2741	?
CRP	b4200	+
CRP	b3230	-
CRP	b3165	-
CRP	b4202	+
CRP	b2009	+
CRP	b0723	+
CRP	b0724	+
CRP	b0721	+
CRP	b0722	+
CRP	b3609	+
CRP	b2913	+
CRP	b0907	-
CRP	b0146	+
CRP	b3583	+
CRP	b3583	?
CRP	b3581	+
CRP	b3581	?
CRP	b3582	+
CRP	b3582	?
CRP	b3908	+
CRP	b1656	-
CRP	b1272	-
CRP	b2965	-
CRP	b3864	-
CRP	b2702	+
CRP	b2704	+
CRP	b2705	+
CRP	b2703	+
CRP	sroD	+
CRP	b0726	+
CRP	b0727	+
CRP	b0728	+
CRP	b0729	+
CRP	b0959	+
CRP	b1519	+
CRP	b3117	+
CRP	b3116	+
CRP	b3115	+
CRP	b3114	+
CRP	b3113	+
CRP	b4471	+
CRP	b3708	+
CRP	b3709	+
CRP	b3707	+
CRP	b4240	-
CRP	b4240	?
CRP	b4239	-
CRP	b4239	?
CRP	b1421	+
CRP	b3166	-
CRP	b3781	-
CRP	b0411	+-
CRP	b2232	+
CRP	b3831	+
CRP	b3831	+-
CRP	b3452	+
CRP	b3453	+
CRP	b3450	+
CRP	b3451	+
CRP	b3449	+
CRP	b3666	+
CRP	b1617	+
CRP	b1616	+
CRP	b1615	+
CRP	b4193	+
CRP	b4194	+
CRP	b4195	+
CRP	b4196	+
CRP	b4197	+
CRP	b4198	+
CRP	b0675	+-
CRP	b3091	+
CRP	b1521	+
CRP	b3092	+
CRP	b4322	+
CRP	b4323	+
CRP	b2509	-
CRP	b3565	+
CRP	b3564	+
CRP	b3566	+
CRP	b3567	+
CRP	b3568	+
CRP	b4406	-
CRP	b0190	-
CRP	b0682	+
CRP	b0820	+
CRP	b1036	+
CRP	b1036	+-
CRP	b1205	+
CRP	b2171	+
CRP	b4502	+
CRP	b2236	+
CRP	b2840	+
CRP	b3221	+
CRP	b3356	+
CRP	b3356	-
CRP	b3575	+
CRP	b3575	?
CRP	b3576	+
CRP	b3576	?
CRP	b3577	+
CRP	b3577	?
CRP	b3578	+
CRP	b3578	?
CRP	b3579	+
CRP	b3579	?
CRP	b4068	+
CRP	b4354	+
CRP	b4671	+
CRP	b1593	+
CRP	b4003	+
CsgD	b1040	+
CsgD	b1921	-
CsgD	b1042	+
CsgD	b1041	+
CsgD	b1043	+
CsgD	b1039	+
CsgD	b1038	+
CsgD	b1037	+
CsgD	b0385	+
CsgD	b1071	-
CsgD	b1070	-
CsgD	b1922	-
CsgD	b1937	-
CsgD	b1938	-
CsgD	b1939	-
CsgD	b1940	-
CsgD	b1941	-
CsgD	b1942	-
CsgD	b1943	-
CsgD	b0382	+
CsgD	b3661	+
CsgD	b0237	-
CsgD	b1920	-
CsgD	b1004	+
CsgD	b1003	+
CsgD	b0964	+
CsgD	b3156	-
CsgD	b3157	-
CsiR	b2659	-
CsiR	b2661	-
CsiR	b2663	-
CsiR	b2662	-
CsiR	b2660	-
CspA	b1237	+
CspA	b2231	+
CueR	b0484	+
CueR	b0123	+
CueR	b0781	-
CueR	b0782	-
CueR	b0783	-
CueR	b0784	-
CueR	b0785	-
CusR	b0571	+
CusR	b0575	+
CusR	b0574	+
CusR	b0572	+
CusR	b0573	+
CusR	b0570	+
CusR	b0432	+
CusR	b0431	+
CusR	b0430	+
CusR	b0429	+
CusR	b0428	+
CusR	b1970	+
CynR	b0338	-
CynR	b0340	+
CynR	b0339	+
CynR	b0341	+
CysB	b1987	+
CysB	b1275	-
CysB	b2422	+
CysB	b2750	+
CysB	b2752	+
CysB	b2762	+
CysB	b2763	+
CysB	b2764	+
CysB	b2414	+
CysB	b2421	+
CysB	b2751	+
CysB	b2425	+
CysB	b2424	+
CysB	b2423	+
CysB	b1535	+
CysB	b1379	-
CysB	b0936	-
CysB	b0933	-
CysB	b0934	-
CysB	b0935	-
CysB	b0937	-
CysB	b0365	+
CysB	b0366	+
CysB	b0367	+
CysB	b0368	+
CysB	b1920	+
CysB	b1729	+
CysB	b0602	+
CysB	b1287	+
CysB	b2291	+
CysB	b2852	+
CysB	b1810	+
CytR	b3934	-
CytR	b2143	-
CytR	b4382	-
CytR	b4383	-
CytR	b4381	-
CytR	b4384	-
CytR	b2393	-
CytR	b2964	-
CytR	b3363	-
CytR	b3461	-
CytR	b0411	-
CytR	b3831	-
CytR	b1036	-
Dan	b3060	+
Dan	b3061	+
Dan	b3062	+
Dan	b3063	+
DcuR	b0620	+
DcuR	b3528	+
DcuR	b4123	+
DcuR	b0619	+
DcuR	b4154	+
DcuR	b4153	+
DcuR	b4152	+
DcuR	b4151	+
DcuR	b4122	+
DeoR	b4382	-
DeoR	b4383	-
DeoR	b4381	-
DeoR	b4384	-
DeoR	b2964	-
DeoR	b0411	-
DhaR	b1201	-
DhaR	b1200	+
DhaR	b1199	+
DhaR	b1198	+
DicA	b1575	-
DicA	b1569	-
DicA	b1578	-
DicA	b1579	-
DicA	b1576	-
DicA	b1577	-
DicA	b1567	-
DicA	b1568	-
DinJ-YafQ	b0226	-
DinJ-YafQ	b0225	-
DinJ-YafQ	b0623	-
DnaA	b3702	+-
DnaA	b3702	-
DnaA	b1415	-
DnaA	b3701	+-
DnaA	b3701	-
DnaA	b2507	-
DnaA	b2508	-
DnaA	b2234	+
DnaA	b2234	-
DnaA	b2235	+
DnaA	b2235	-
DnaA	b3863	+
DnaA	b3700	+-
DnaA	b3700	-
DnaA	b3461	-
DnaA	b2236	+
DnaA	b2236	-
DnaA	b4670	-
DpiA	b0564	-
DpiA	b0620	+
DpiA	b0618	+
DpiA	b0617	+
DpiA	b0616	+
DpiA	b0615	+
DpiA	b0613	+
DpiA	b0614	+
DpiA	b0619	+
DpiA	b3093	+
DpiA	b3236	+
DsdC	b2364	-
DsdC	b2366	+
DsdC	b2365	+
EbgR	b3076	-
EbgR	b3077	-
EnvR	b0463	-
EnvR	b3699	-
EnvY	b2215	+
EnvY	b0929	+
EvgA	b2369	+
EvgA	b3512	+
EvgA	b1499	+
EvgA	b2470	+
EvgA	b2368	+
EvgA	b2367	+
EvgA	b2370	+
EvgA	b2374	+
EvgA	b3513	+
EvgA	b3514	+
EvgA	b2373	+
EvgA	b1500	+
EvgA	b1501	+
EvgA	b2085	+
EvgA	b2083	+
EvgA	b2371	+
EvgA	b2372	+
EvgA	b2375	+
ExuR	b3094	-
ExuR	b4324	-
ExuR	b3093	-
ExuR	b4357	-
ExuR	b3091	-
ExuR	b1521	-
ExuR	b3092	-
ExuR	b4322	-
ExuR	b4323	-
FabR	b0954	-
FabR	b2323	-
FadR	b3255	+
FadR	b1187	+
FadR	b4018	+
FadR	b0185	+
FadR	b3256	+
FadR	b2316	+
FadR	b0954	+
FadR	b2323	+
FadR	b1092	+
FadR	b3256	+
FadR	b1091	+
FadR	b1288	+
FadR	b3845	-
FadR	b3846	-
FadR	b1805	-
FadR	b0221	-
FadR	b3081	-
FadR	b2342	-
FadR	b2341	-
FadR	b2344	-
FadR	b0443	-
FadR	sroD	-
FadR	b3495	-
FeaR	b1385	+
FeaR	b1386	+
FhlA	b2731	+
FhlA	b2491	+
FhlA	b4079	+
FhlA	b2492	+
FhlA	b2725	+
FhlA	b2724	+
FhlA	b2723	+
FhlA	b2722	+
FhlA	b2721	+
FhlA	b2720	+
FhlA	b2719	+
FhlA	b2718	+
FhlA	b2717	+
FhlA	b2713	+
FhlA	b2481	+
FhlA	b2482	+
FhlA	b2483	+
FhlA	b2484	+
FhlA	b2485	+
FhlA	b2486	+
FhlA	b2487	+
FhlA	b2488	+
FhlA	b2489	+
FhlA	b2490	+
FhlA	b2726	+
FhlA	b2727	+
FhlA	b2728	+
FhlA	b2729	+
FhlA	b2730	+
FhlA	b2712	+
Fis	b3357	-
Fis	b3261	-
Fis	b3516	-
Fis	b2980	-
Fis	b3868	+
Fis	b1237	+
Fis	b4000	+
Fis	b0440	-
Fis	b1531	+
Fis	b1530	+
Fis	b2783	+
Fis	b3601	-
Fis	b3569	-
Fis	b0118	-
Fis	b4069	-
Fis	b4067	-
Fis	b1241	+
Fis	b3853	+
Fis	b3276	+
Fis	b0203	+
Fis	b2397	+
Fis	b2396	+
Fis	b3588	-
Fis	b2957	-
Fis	b0050	+
Fis	b0049	+
Fis	b0536	+
Fis	b2348	+
Fis	b3796	+
Fis	b0216	+
Fis	b3721	-
Fis	b3722	-
Fis	b3723	-
Fis	b0032	+
Fis	b0033	+
Fis	b1000	-
Fis	b0999	-
Fis	b1552	-
Fis	b3368	-
Fis	b4382	+
Fis	b4383	+
Fis	b4381	+
Fis	b4384	+
Fis	b0894	-
Fis	b0895	-
Fis	b0896	-
Fis	b0812	-
Fis	b3260	-
Fis	b3845	+
Fis	b3846	+
Fis	b2912	+
Fis	b2912	-
Fis	b1566	+
Fis	b4122	-
Fis	b3517	-
Fis	b1493	-
Fis	b1492	-
Fis	b3870	+
Fis	b3869	+
Fis	b0809	-
Fis	b0670	+
Fis	b0665	+
Fis	b0668	+
Fis	b0664	+
Fis	b2241	+
Fis	b2242	+
Fis	b2243	+
Fis	b2239	+
Fis	b2240	+
Fis	b3969	+
Fis	b3757	+
Fis	b4008	+
Fis	b2590	+
Fis	b2400	-
Fis	b3978	+
Fis	b2864	+
Fis	b2579	+
Fis	b2507	-
Fis	b2508	-
Fis	b2231	-
Fis	b3699	-
Fis	b3797	+
Fis	b1182	-
Fis	b0972	-
Fis	b0973	-
Fis	b0974	-
Fis	b0975	-
Fis	b0976	-
Fis	b0977	-
Fis	b3852	+
Fis	b3277	+
Fis	b0202	+
Fis	b3168	+
Fis	b1732	-
Fis	b4369	+
Fis	b4370	+
Fis	b3798	+
Fis	b4368	+
Fis	b0672	+
Fis	b4270	+
Fis	b0116	+
Fis	b0743	+
Fis	b2404	+
Fis	b0745	+
Fis	b4034	+
Fis	b4033	+
Fis	b4032	+
Fis	b1532	+
Fis	b2782	+
Fis	b2781	+
Fis	b0673	+
Fis	b0666	+
Fis	b3171	+
Fis	b2149	-
Fis	b2148	-
Fis	b4219	-
Fis	b3599	-
Fis	b3600	-
Fis	b3225	-
Fis	b3223	-
Fis	b3222	-
Fis	b3224	-
Fis	b1224	-
Fis	b1225	-
Fis	b1227	-
Fis	b1226	-
Fis	b1223	-
Fis	b1109	+
Fis	b1109	-
Fis	b3365	-
Fis	b3367	-
Fis	b3366	-
Fis	b2234	+
Fis	b2235	+
Fis	b4070	-
Fis	b4071	-
Fis	b4072	-
Fis	b4073	-
Fis	b4074	-
Fis	b4075	-
Fis	b4076	-
Fis	b2277	+
Fis	b2287	+
Fis	b2286	+
Fis	b2285	+
Fis	b2284	+
Fis	b2283	+
Fis	b2282	+
Fis	b2281	+
Fis	b2280	+
Fis	b2279	+
Fis	b2278	+
Fis	b2277	+
Fis	b2276	+
Fis	b3169	+
Fis	b1335	-
Fis	b1739	-
Fis	b4376	-
Fis	b3073	?
Fis	b0052	+
Fis	b0903	-
Fis	b4134	+
Fis	b2967	+
Fis	b3164	+
Fis	b3545	+
Fis	b2189	+
Fis	b3799	+
Fis	b4111	+
Fis	b1101	+-
Fis	b1101	-
Fis	b0945	-
Fis	b0405	+
Fis	b3167	+
Fis	b3170	+
Fis	b3123	+
Fis	b3123	-
Fis	b3231	-
Fis	b3230	-
Fis	b3165	+
Fis	b3855	+
Fis	b3971	+
Fis	b3759	+
Fis	b3274	+
Fis	b4010	+
Fis	b3272	+
Fis	b2588	+
Fis	b0205	+
Fis	b3854	+
Fis	b3970	+
Fis	b3758	+
Fis	b3275	+
Fis	b4009	+
Fis	b2589	+
Fis	b0204	+
Fis	b3851	+
Fis	b3968	+
Fis	b3756	+
Fis	b3278	+
Fis	b4007	+
Fis	b2591	+
Fis	b0201	+
Fis	b0051	+
Fis	b0971	+
Fis	b1032	+
Fis	b1480	+
Fis	ssrS	+
Fis	ssrS	-
Fis	b3979	+
Fis	b3976	+
Fis	b3273	+
Fis	b0244	+
Fis	b1274	+
Fis	b1274	-
Fis	b1229	+
Fis	b1421	+
Fis	b3965	+
Fis	b3166	+
Fis	b3980	+
Fis	b1231	+
Fis	b3977	+
Fis	b1230	+
Fis	b0744	+
Fis	b2401	+
Fis	b2402	+
Fis	b2403	+
Fis	b3566	-
Fis	b3567	-
Fis	b3568	-
Fis	b1797	-
Fis	b2236	+
Fis	b3221	-
Fis	b4068	-
Fis	b1796	-
FlhDC	b1921	+
FlhDC	b2201	+
FlhDC	b2200	+
FlhDC	b2199	+
FlhDC	b2198	+
FlhDC	b2197	+
FlhDC	b2196	+
FlhDC	b2195	+
FlhDC	b2194	+
FlhDC	b1072	+
FlhDC	b1073	+
FlhDC	b1074	+
FlhDC	b1075	+
FlhDC	b1076	+
FlhDC	b1077	+
FlhDC	b1078	+
FlhDC	b1079	+
FlhDC	b1080	+
FlhDC	b1081	+
FlhDC	b1071	+
FlhDC	b1070	+
FlhDC	b1879	+
FlhDC	b1880	+
FlhDC	b1878	+
FlhDC	b1922	+
FlhDC	b1924	+
FlhDC	b1937	+
FlhDC	b1938	+
FlhDC	b1939	+
FlhDC	b1940	+
FlhDC	b1941	+
FlhDC	b1942	+
FlhDC	b1943	+
FlhDC	b1944	+
FlhDC	b1945	+
FlhDC	b1946	+
FlhDC	b1947	+
FlhDC	b1948	+
FlhDC	b1949	+
FlhDC	b1950	+
FlhDC	b1925	+
FlhDC	b1926	+
FlhDC	b2241	+
FlhDC	b2242	+
FlhDC	b2243	+
FlhDC	b0655	+
FlhDC	b0654	+
FlhDC	b0653	+
FlhDC	b0652	+
FlhDC	b2713	+
FlhDC	b2712	+
FlhDC	b3236	-
FlhDC	b2149	-
FlhDC	b2150	-
FlhDC	b2148	-
FlhDC	b2206	+
FlhDC	b2203	+
FlhDC	b2202	+
FlhDC	b2207	+
FlhDC	b2208	+
FlhDC	b2205	+
FlhDC	b2204	+
FlhDC	b4070	+
FlhDC	b4071	+
FlhDC	b4072	+
FlhDC	b4073	+
FlhDC	b4074	+
FlhDC	b4075	+
FlhDC	b4076	+
FlhDC	b3525	+
FlhDC	b2826	+
FlhDC	b2825	+
FlhDC	b2823	+
FlhDC	b2822	+
FlhDC	sroC	+
FlhDC	b1920	+
FlhDC	b1194	+
FlhDC	b1904	+
FlhDC	b2737	+
FlhDC	b2824	+
FliZ	b1040	-
FliZ	b1891	-
FliZ	b1892	-
FliZ	b3512	-
FliZ	b2127	-
FliZ	b1042	-
FliZ	b1041	-
FliZ	b1043	-
FliZ	b1039	-
FliZ	b1038	-
FliZ	b1037	-
FliZ	b1493	-
FliZ	b1492	-
FliZ	b3510	-
FliZ	b3509	-
FliZ	b3513	-
FliZ	b3514	-
FliZ	b4376	-
FliZ	b1285	-
FliZ	b3508	-
FNR	b4401	+
FNR	b4401	-
FNR	b4133	+
FNR	b0034	+
FNR	b4124	+
FNR	b0620	-
FNR	b2731	+
FNR	b1334	-
FNR	b3515	-
FNR	b3516	-
FNR	b2491	-
FNR	b1988	-
FNR	b1221	-
FNR	b3481	+
FNR	b0113	+-
FNR	b4063	-
FNR	b4062	-
FNR	b3118	+
FNR	b2163	-
FNR	b3071	+
FNR	b0114	+-
FNR	b0114	-
FNR	b0115	+-
FNR	b0115	-
FNR	b2296	+
FNR	b1276	-
FNR	b0462	+
FNR	b3266	+
FNR	b1241	+
FNR	b3072	+
FNR	b1415	-
FNR	b0451	+-
FNR	b2957	+
FNR	b4139	+
FNR	b0928	+-
FNR	b3532	+
FNR	b3531	+
FNR	b0039	+
FNR	b0038	+
FNR	b0037	+
FNR	b0036	+
FNR	b0035	+
FNR	b0040	+
FNR	b2201	+
FNR	b2200	+
FNR	b2199	+
FNR	b2198	+
FNR	b2197	+
FNR	b2196	+
FNR	b2195	+
FNR	b2194	+
FNR	b1883	+
FNR	b1884	+
FNR	b1882	+
FNR	b1881	+
FNR	b0618	-
FNR	b0617	-
FNR	b0616	-
FNR	b0615	-
FNR	b0613	-
FNR	b0614	-
FNR	b0733	+
FNR	b0733	-
FNR	b0734	+
FNR	b0734	-
FNR	b0886	+
FNR	b0887	+
FNR	b0432	-
FNR	b0431	-
FNR	b0430	-
FNR	b0429	-
FNR	b0428	-
FNR	b3368	+
FNR	b4138	+
FNR	b4123	+
FNR	b0621	+
FNR	b4125	+
FNR	b0894	+
FNR	b0895	+
FNR	b0896	+
FNR	b1591	+
FNR	b0619	-
FNR	b3544	-
FNR	b3543	-
FNR	b3542	-
FNR	b3541	-
FNR	b3540	-
FNR	b2368	+
FNR	b2367	+
FNR	b0586	+
FNR	b4079	+
FNR	b1474	+
FNR	b1474	+-
FNR	b1475	+
FNR	b1475	+-
FNR	b1476	+
FNR	b1476	+-
FNR	b3408	+
FNR	b3409	+
FNR	b3410	+
FNR	b0587	+
FNR	b0585	+
FNR	b0041	+
FNR	b0042	+
FNR	b0043	+
FNR	b0044	+
FNR	b4699	+
FNR	b0904	+
FNR	b2492	-
FNR	b4154	+
FNR	b4153	+
FNR	b4152	+
FNR	b4151	+
FNR	b1612	-
FNR	b4122	+
FNR	b1611	-
FNR	b3517	-
FNR	b3124	+
FNR	b3126	+
FNR	b3127	+
FNR	b3125	+
FNR	b2904	+
FNR	b2903	+
FNR	b2905	+
FNR	b1761	+
FNR	b0167	+-
FNR	b0450	+-
FNR	b2241	+
FNR	b2242	+
FNR	b2243	+
FNR	b2239	+
FNR	b2240	+
FNR	b3212	-
FNR	b3213	-
FNR	b3214	-
FNR	b2029	-
FNR	b2579	+-
FNR	b2579	-
FNR	b0873	+
FNR	b0872	+
FNR	b1210	-
FNR	b1182	+
FNR	b2552	-
FNR	b2481	-
FNR	b2482	-
FNR	b2483	-
FNR	b2484	-
FNR	b2485	-
FNR	b2486	-
FNR	b2487	-
FNR	b2488	-
FNR	b2489	-
FNR	b2490	-
FNR	b2727	+
FNR	b2728	+
FNR	b2729	+
FNR	b2730	+
FNR	b4326	+
FNR	b1160	+
FNR	b3942	+
FNR	b0116	+-
FNR	b3417	+
FNR	b3416	+
FNR	b0781	+
FNR	b0782	+
FNR	b0783	+
FNR	b0784	+
FNR	b0785	+
FNR	b0827	-
FNR	b0826	-
FNR	b2206	+
FNR	b2203	+
FNR	b2202	+
FNR	b2207	+
FNR	b2208	+
FNR	b2205	+
FNR	b2204	+
FNR	b1224	+
FNR	b1225	+
FNR	b1227	+
FNR	b1226	+
FNR	b1223	+
FNR	b1222	-
FNR	b1109	-
FNR	b3476	+
FNR	b3477	+
FNR	b3478	+
FNR	b3479	+
FNR	b3480	+
FNR	b3365	+
FNR	b3367	+
FNR	b3366	+
FNR	b2710	-
FNR	b2711	-
FNR	b4238	+
FNR	b4237	+
FNR	b4070	+
FNR	b4071	+
FNR	b4072	+
FNR	b4073	+
FNR	b4074	+
FNR	b4075	+
FNR	b4076	+
FNR	b2277	-
FNR	b2287	-
FNR	b2286	-
FNR	b2285	-
FNR	b2284	-
FNR	b2283	-
FNR	b2282	-
FNR	b2281	-
FNR	b2280	-
FNR	b2279	-
FNR	b2278	-
FNR	b2277	-
FNR	b2276	-
FNR	b1256	+
FNR	b0814	-
FNR	b2503	+
FNR	b1127	+
FNR	b0903	+
FNR	b1715	-
FNR	b3724	+
FNR	b3493	+
FNR	b1211	-
FNR	b1212	-
FNR	b3726	+
FNR	b3725	+
FNR	b3727	+
FNR	b3728	+
FNR	b2499	-
FNR	b2500	-
FNR	b1297	-
FNR	b1296	-
FNR	b2608	-
FNR	b3123	+
FNR	b3317	+
FNR	b3320	+
FNR	b3319	+
FNR	b3231	-
FNR	b3313	+
FNR	b2606	-
FNR	b1716	-
FNR	b3315	+
FNR	b3318	+
FNR	b3312	+
FNR	b3314	+
FNR	b3230	-
FNR	b3321	+
FNR	b2609	-
FNR	b3311	+
FNR	b3316	+
FNR	b0723	-
FNR	b0724	-
FNR	b0721	-
FNR	b0722	-
FNR	b3908	-
FNR	b0936	+
FNR	b0933	+
FNR	b0934	+
FNR	b0935	+
FNR	b0937	+
FNR	b0726	-
FNR	b0727	-
FNR	b0728	-
FNR	b0729	-
FNR	b1885	+
FNR	b1886	+
FNR	b3117	+
FNR	b3116	+
FNR	b3115	+
FNR	b3114	+
FNR	b3113	+
FNR	b4471	+
FNR	b0605	-
FNR	b2607	-
FNR	b4040	-
FNR	b4039	-
FNR	b2498	+
FNR	b2497	+
FNR	b3091	+
FNR	b3092	+
FNR	b2866	+
FNR	b2867	+
FNR	b2868	+
FNR	b0602	+
FNR	b4511	+
FNR	b1220	-
FNR	b1537	+
FNR	b1669	+
FNR	b1670	+
FNR	b1673	+
FNR	b1672	+
FNR	b1671	+
FNR	b1674	+
FNR	b1904	+
FNR	b2732	-
FNR	b3518	+
FNR	b1587	+
FNR	b1588	+
FNR	b1589	+
FNR	b1590	+
FNR	b3830	-
FNR	b4209	-
FNR	b1852	-
FucR	b2805	+
FucR	b2800	+
FucR	b2802	+
FucR	b2803	+
FucR	b2799	+
FucR	b2801	+
FucR	b2804	+
Fur	b1891	-
Fur	b1892	-
Fur	b1334	-
Fur	b0683	-
Fur	b3938	-
Fur	b1988	-
Fur	b1658	-
Fur	b4063	-
Fur	b4062	-
Fur	b0451	+-
Fur	b0928	-
Fur	b2155	-
Fur	b0240	-
Fur	b0432	-
Fur	b0431	-
Fur	b0430	-
Fur	b0429	-
Fur	b0428	-
Fur	b0596	-
Fur	b0595	-
Fur	b0593	-
Fur	b0583	-
Fur	b0594	-
Fur	b0586	-
Fur	b0597	-
Fur	b0591	+-
Fur	b3006	-
Fur	b3005	-
Fur	b4291	-
Fur	b4290	-
Fur	b4289	-
Fur	b4288	-
Fur	b4287	-
Fur	b4293	-
Fur	b4292	-
Fur	b3408	-
Fur	b3409	-
Fur	b3410	-
Fur	b0584	-
Fur	b0592	-
Fur	b0588	-
Fur	b0590	-
Fur	b0587	-
Fur	b0589	-
Fur	b0585	-
Fur	b0150	-
Fur	b0153	-
Fur	b0151	-
Fur	b0152	-
Fur	b1102	-
Fur	b4367	-
Fur	b0805	-
Fur	b1905	+
Fur	b4122	+
Fur	b1611	-
Fur	b3124	-
Fur	b3126	-
Fur	b3127	-
Fur	b3125	-
Fur	b1761	+-
Fur	b0167	-
Fur	b0450	+-
Fur	b3212	-
Fur	b3213	-
Fur	b3214	-
Fur	b2029	-
Fur	b0755	-
Fur	b2579	-
Fur	b3324	-
Fur	b3325	-
Fur	b3326	-
Fur	b3327	-
Fur	b3328	-
Fur	b3329	-
Fur	b3330	-
Fur	b3331	-
Fur	b3332	-
Fur	b3333	-
Fur	b3334	-
Fur	b3335	-
Fur	b2552	-
Fur	b1732	+
Fur	b3942	+
Fur	b0116	+-
Fur	b4019	-
Fur	b2392	-
Fur	b1821	+
Fur	b1109	-
Fur	b1548	-
Fur	b2675	-
Fur	b2676	-
Fur	b2673	-
Fur	b2674	-
Fur	b0929	+
Fur	b1243	-
Fur	b1244	-
Fur	b1245	-
Fur	b1246	-
Fur	b1247	-
Fur	b1062	-
Fur	b2106	-
Fur	b2107	-
Fur	b3123	-
Fur	b2741	-
Fur	b4451	-
Fur	b0723	+
Fur	b0724	+
Fur	b0721	+
Fur	b0722	+
Fur	b3908	-
Fur	b0726	+
Fur	b0727	+
Fur	b0728	+
Fur	b0729	+
Fur	b1684	-
Fur	b1683	-
Fur	b1682	-
Fur	b1681	-
Fur	b1679	-
Fur	b1680	-
Fur	b1546	-
Fur	b1252	+
Fur	b1252	-
Fur	b4511	-
Fur	b1547	-
Fur	b2671	-
Fur	b3441	-
Fur	b4567	-
Fur	b3070	-
Fur	b1973	+
Fur	b1852	-
GadE	b3512	+
GadE	b3515	+
GadE	b3516	+
GadE	b0889	+
GadE	b1951	+
GadE	b0432	+
GadE	b0431	+
GadE	b0430	+
GadE	b0429	+
GadE	b0428	+
GadE	b0180	+
GadE	b1923	+
GadE	b1493	+
GadE	b1492	+
GadE	b3212	+
GadE	b3213	+
GadE	b3214	+
GadE	b2029	+
GadE	b3510	+
GadE	b3509	+
GadE	b3511	+
GadE	b0181	+
GadE	b0179	+
GadE	b3513	+
GadE	b3514	+
GadE	b4177	+
GadE	b0178	+
GadE	b3508	+
GadE-RcsB	b3516	+
GadE-RcsB	b4115	+
GadE-RcsB	b3800	+
GadE-RcsB	b4131	+
GadE-RcsB	b4132	+
GadE-RcsB	b3507	+
GadE-RcsB	b3517	+
GadE-RcsB	b3506	+
GadE-RcsB	b3491	+
GadW	b3512	+
GadW	b3515	-
GadW	b3516	+-
GadW	b3516	-
GadW	b3507	-
GadW	b3517	+-
GadW	b1493	+-
GadW	b1492	+-
GadW	b4452	-
GadW	b3510	+-
GadW	b3509	+-
GadW	b3513	+
GadW	b3514	+
GadW	b3506	-
GadW	b3508	+-
GadX	b3512	+
GadX	b3515	+
GadX	b3515	-
GadX	b3516	+
GadX	b1237	+
GadX	b0451	+
GadX	b0674	+
GadX	b3966	-
GadX	b4131	+
GadX	b4132	+
GadX	b3507	+
GadX	b3517	+
GadX	b1493	+
GadX	b1492	+
GadX	b4452	+
GadX	b0450	+
GadX	b3510	+-
GadX	b3509	+-
GadX	b3511	+
GadX	b0439	+
GadX	b3513	+
GadX	b3514	+
GadX	b3967	-
GadX	b2741	+
GadX	b3506	+
GadX	b1333	+
GadX	b0485	+
GadX	b0486	+
GadX	b3508	+-
GalR	b2837	-
GalR	b2151	-
GalR	b0759	+
GalR	b0759	-
GalR	b0757	+
GalR	b0757	-
GalR	b0756	+
GalR	b0756	-
GalR	b2943	-
GalR	b0758	+
GalR	b0758	-
GalR	b2149	-
GalR	b2150	-
GalR	b2148	-
GalS	b2837	-
GalS	b2151	-
GalS	b0759	+
GalS	b0759	-
GalS	b0757	+
GalS	b0757	-
GalS	b0756	+
GalS	b0756	-
GalS	b2943	-
GalS	b0758	+
GalS	b0758	-
GalS	b2149	-
GalS	b2150	-
GalS	b2148	-
GatR	b2094	-
GatR	b2093	-
GatR	b2092	-
GatR	b2091	-
GatR	b2096	-
GatR	b2095	-
GcvA	b2808	-
GcvA	b4443	+
GcvA	b2904	+-
GcvA	b2904	-
GcvA	b2903	+-
GcvA	b2903	-
GcvA	b2905	+-
GcvA	b2905	-
GlcC	b2980	-
GlcC	b1101	+
GlcC	b2976	+
GlcC	b2979	+
GlcC	b4468	+
GlcC	b4467	+
GlcC	b2977	+
GlpR	b2241	-
GlpR	b2242	-
GlpR	b2243	-
GlpR	b3426	-
GlpR	b3927	-
GlpR	b3926	-
GlpR	b2239	-
GlpR	b2240	-
GlpR	b3925	-
GlrR	b4441	+
GntR	b4264	-
GntR	b1850	-
GntR	b1851	-
GntR	b3437	-
GntR	b3415	-
GntR	b4476	-
GntR	b3413	-
GntR	b4267	-
GntR	b4268	-
GntR	b4266	-
GntR	b4265	-
GntR	b3414	-
GutM	b2706	+
GutM	b2707	+
GutM	b2708	+
GutM	b2702	+
GutM	b2704	+
GutM	b2705	+
GutM	b2703	+
GutR	b2706	-
GutR	b2707	-
GutR	b2708	-
GutR	b2702	-
GutR	b2704	-
GutR	b2705	-
GutR	b2703	-
HcaR	b2537	-
HcaR	b2541	+
HcaR	b2540	+
HcaR	b2542	+
HcaR	b2538	+
HcaR	b2539	+
HdfR	b1891	-
HdfR	b1892	-
HdfR	b3212	+
HdfR	b3213	+
HdfR	b3214	+
HipAB	b1507	-
HipAB	b1508	-
HipAB	b2783	-
HipAB	b2782	-
HipAB	b2784	-
HipB	b1507	-
HipB	b1508	-
HipB	b2783	-
HipB	b3081	-
HipB	b2782	-
HipB	b2784	-
H-NS	b4116	-
H-NS	b0564	-
H-NS	b4366	-
H-NS	b0435	-
H-NS	b4133	-
H-NS	b0034	-
H-NS	b2369	-
H-NS	b1891	+
H-NS	b1892	+
H-NS	b1921	+
H-NS	b3512	-
H-NS	b3515	-
H-NS	b3516	-
H-NS	b2706	+
H-NS	b4480	-
H-NS	b1237	-
H-NS	b0076	-
H-NS	b0889	-
H-NS	b2783	+
H-NS	b0020	-
H-NS	b1951	-
H-NS	b2217	-
H-NS	b2707	+
H-NS	b2669	-
H-NS	b1499	-
H-NS	b4365	-
H-NS	b0462	-
H-NS	b3266	-
H-NS	b3665	-
H-NS	b4117	-
H-NS	b3276	-
H-NS	b0203	-
H-NS	b1597	-
H-NS	b3721	-
H-NS	b3722	-
H-NS	b3723	-
H-NS	b4131	-
H-NS	b4132	-
H-NS	b0039	-
H-NS	b0038	-
H-NS	b0037	-
H-NS	b0036	-
H-NS	b0035	-
H-NS	b0040	-
H-NS	b2755	-
H-NS	b2754	-
H-NS	b2760	-
H-NS	b2759	-
H-NS	b2758	-
H-NS	b2757	-
H-NS	b2756	-
H-NS	b3338	-
H-NS	b0921	+
H-NS	b2659	+
H-NS	b2535	+
H-NS	b0880	+
H-NS	b0733	-
H-NS	b0734	-
H-NS	b2422	-
H-NS	b3368	-
H-NS	b2421	-
H-NS	b2425	-
H-NS	b2424	-
H-NS	b2423	-
H-NS	b3507	-
H-NS	b0161	-
H-NS	b0812	-
H-NS	b0586	+
H-NS	b2370	-
H-NS	b2912	-
H-NS	b0587	+
H-NS	b0585	+
H-NS	b4314	+
H-NS	b4312	-
H-NS	b4316	+
H-NS	b4314	+
H-NS	b4313	-
H-NS	b4318	+
H-NS	b1237	+
H-NS	b4320	+
H-NS	b4315	+
H-NS	b1922	+
H-NS	b1923	+
H-NS	b1905	-
H-NS	b2661	+
H-NS	b2663	+
H-NS	b2662	+
H-NS	b3517	-
H-NS	b0759	-
H-NS	b0757	-
H-NS	b0756	-
H-NS	b0758	-
H-NS	b3124	-
H-NS	b3126	-
H-NS	b3127	-
H-NS	b3125	-
H-NS	b3969	-
H-NS	b3757	-
H-NS	b2590	-
H-NS	b3323	-
H-NS	b3322	-
H-NS	b3324	-
H-NS	b3325	-
H-NS	b3326	-
H-NS	b3327	-
H-NS	b3328	-
H-NS	b3329	-
H-NS	b3330	-
H-NS	b3331	-
H-NS	b3332	-
H-NS	b3333	-
H-NS	b3334	-
H-NS	b3335	-
H-NS	b2708	+
H-NS	b1967	-
H-NS	b3510	-
H-NS	b3509	-
H-NS	b3511	-
H-NS	b2309	+
H-NS	b2307	+
H-NS	b2306	+
H-NS	b2308	+
H-NS	b1182	+-
H-NS	b3277	-
H-NS	b0202	-
H-NS	b0078	-
H-NS	b0077	-
H-NS	b0342	-
H-NS	b0343	-
H-NS	b0344	-
H-NS	b2660	+
H-NS	b2782	+
H-NS	b3513	-
H-NS	b3514	-
H-NS	b4439	-
H-NS	b0924	+
H-NS	b0923	+
H-NS	b0922	+
H-NS	b0019	-
H-NS	b3365	-
H-NS	b3367	-
H-NS	b3366	-
H-NS	b2234	-
H-NS	b2235	-
H-NS	b4238	-
H-NS	b4237	-
H-NS	b1482	-
H-NS	b2677	-
H-NS	b2678	-
H-NS	b2679	-
H-NS	b2216	-
H-NS	b2784	+
H-NS	b3123	-
H-NS	b3971	-
H-NS	b3759	-
H-NS	b3274	-
H-NS	b3272	-
H-NS	b2588	-
H-NS	b0205	-
H-NS	b3970	-
H-NS	b3758	-
H-NS	b3275	-
H-NS	b2589	-
H-NS	b0204	-
H-NS	b3968	-
H-NS	b3756	-
H-NS	b3278	-
H-NS	b2591	-
H-NS	b0201	-
H-NS	b3506	-
H-NS	b2702	+
H-NS	b2704	+
H-NS	b2705	+
H-NS	b2703	+
H-NS	ssrS	-
H-NS	b1920	+
H-NS	b3273	-
H-NS	b4511	+
H-NS	b1257	-
H-NS	b1258	-
H-NS	b1259	-
H-NS	b1501	-
H-NS	b2236	-
H-NS	b3508	-
H-NS	b3491	-
H-NS	b4364	-
HU	b0759	-
HU	b0757	-
HU	b0756	-
HU	b0758	-
HU	b4439	+
HU	b3161	-
HU	b0688	-
HU	b0687	-
HU	b1907	-
HyfR	b2491	+
HyfR	b2492	+
HyfR	b2481	+
HyfR	b2482	+
HyfR	b2483	+
HyfR	b2484	+
HyfR	b2485	+
HyfR	b2486	+
HyfR	b2487	+
HyfR	b2488	+
HyfR	b2489	+
HyfR	b2490	+
HypT	b0733	+
HypT	b0734	+
HypT	b2762	+
HypT	b4291	-
HypT	b4290	-
HypT	b4289	-
HypT	b4288	-
HypT	b4287	-
HypT	b3939	+
HypT	b0198	+
HypT	b3940	+
HypT	b0199	+
HypT	b0197	+
IclR	b4018	-
IclR	b4015	-
IclR	b4014	-
IclR	b4016	-
IdnR	b4264	+
IdnR	b3437	-
IdnR	b4476	-
IdnR	b4267	+
IdnR	b4268	+
IdnR	b4266	+
IdnR	b4265	+
IHF	b1040	+
IHF	b2731	+
IHF	b3261	+
IHF	b1891	-
IHF	b1892	-
IHF	b1334	+
IHF	b1507	+
IHF	b1508	+
IHF	b1712	-
IHF	b0912	-
IHF	b3405	-
IHF	b3118	+
IHF	b2163	+
IHF	b3574	-
IHF	b4015	+
IHF	b4014	+
IHF	b4016	+
IHF	b4069	-
IHF	b4067	-
IHF	b4117	+
IHF	b2435	-
IHF	b2222	+
IHF	b2224	+
IHF	b2221	+
IHF	b2223	+
IHF	b0032	+-
IHF	b0033	+-
IHF	b1039	+
IHF	b1038	+
IHF	b1037	+
IHF	b3368	+
IHF	b3368	-
IHF	b2762	+
IHF	b2763	+
IHF	b2764	+
IHF	b3227	+
IHF	b0894	-
IHF	b0895	-
IHF	b0896	-
IHF	b3544	+
IHF	b3543	+
IHF	b3542	+
IHF	b3541	+
IHF	b3540	+
IHF	b0812	+
IHF	b3260	+
IHF	b3404	-
IHF	b4314	+
IHF	b4312	+
IHF	b4316	+
IHF	b4314	+
IHF	b4318	+
IHF	b1237	+
IHF	b4320	+
IHF	b4315	+
IHF	b0904	+
IHF	b0048	+
IHF	b0124	+
IHF	b1101	+
IHF	b2976	+
IHF	b2979	+
IHF	b4468	+
IHF	b4467	+
IHF	b2977	+
IHF	b4441	+
IHF	b0811	+
IHF	b0810	+
IHF	b0809	+
IHF	b2239	-
IHF	b2240	-
IHF	b0720	+
IHF	b3212	+
IHF	b3213	+
IHF	b3214	+
IHF	b1210	+
IHF	b2436	-
IHF	b0125	-
IHF	b0139	+
IHF	b2725	+
IHF	b2724	+
IHF	b2723	+
IHF	b2722	+
IHF	b2721	+
IHF	b2720	+
IHF	b2719	+
IHF	b2718	+
IHF	b2717	+
IHF	b2726	+
IHF	b2727	+
IHF	b2728	+
IHF	b2729	+
IHF	b2730	+
IHF	b3686	+
IHF	b3772	+
IHF	b3772	-
IHF	b3771	+
IHF	b3771	-
IHF	b3770	+
IHF	b3770	-
IHF	ilvG_1	+
IHF	ilvG_1	-
IHF	b3768	+
IHF	b3768	-
IHF	b3766	+
IHF	b3766	-
IHF	b3769	+
IHF	b3769	-
IHF	b4669	+
IHF	b4669	-
IHF	b3580	+
IHF	b4439	-
IHF	b3161	-
IHF	b1224	+
IHF	b1225	+
IHF	b1227	+
IHF	b1226	+
IHF	b1223	+
IHF	b1109	-
IHF	b3365	+
IHF	b3365	-
IHF	b3367	+
IHF	b3367	-
IHF	b3366	+
IHF	b3366	-
IHF	b0553	-
IHF	b2710	+
IHF	b2710	-
IHF	b2711	+
IHF	b2711	-
IHF	b4070	+
IHF	b4070	-
IHF	b4071	+
IHF	b4071	-
IHF	b4072	+
IHF	b4072	-
IHF	b4073	+
IHF	b4073	-
IHF	b4074	+
IHF	b4074	-
IHF	b4075	+
IHF	b4075	-
IHF	b4076	+
IHF	b4076	-
IHF	b2277	-
IHF	b2287	-
IHF	b2286	-
IHF	b2285	-
IHF	b2284	-
IHF	b2283	-
IHF	b2282	-
IHF	b2281	-
IHF	b2280	-
IHF	b2279	-
IHF	b2278	-
IHF	b2277	-
IHF	b2276	-
IHF	b2215	-
IHF	b0929	+
IHF	b0929	-
IHF	b1739	-
IHF	b4376	-
IHF	b1388	+
IHF	b1389	+
IHF	b1390	+
IHF	b1391	+
IHF	b1392	+
IHF	b1393	+
IHF	b1394	+
IHF	b1395	+
IHF	b1396	+
IHF	b1397	+
IHF	b1398	+
IHF	b1387	+
IHF	b3073	?
IHF	b0903	+
IHF	b3724	+
IHF	b1211	+
IHF	b1212	+
IHF	b2677	+
IHF	b2678	+
IHF	b2679	+
IHF	b1304	+
IHF	b1305	+
IHF	b1306	+
IHF	b1307	+
IHF	b1308	+
IHF	b4050	+
IHF	b3726	+
IHF	b3725	+
IHF	b3727	+
IHF	b3728	+
IHF	b3461	+
IHF	b4475	+
IHF	b3421	+
IHF	b3583	+
IHF	b3581	+
IHF	b3582	+
IHF	b3908	-
IHF	b1656	-
IHF	b1480	+
IHF	b0936	+
IHF	b0936	-
IHF	b0933	+
IHF	b0933	-
IHF	b0934	+
IHF	b0934	-
IHF	b0935	+
IHF	b0935	-
IHF	b0937	+
IHF	b0937	-
IHF	b0726	-
IHF	b0727	-
IHF	b0728	-
IHF	b0729	-
IHF	b1684	+
IHF	b1683	+
IHF	b1682	+
IHF	b1681	+
IHF	b1679	+
IHF	b1680	+
IHF	b3117	+
IHF	b3116	+
IHF	b3115	+
IHF	b3114	+
IHF	b3113	+
IHF	b4471	+
IHF	b1907	-
IHF	b4040	-
IHF	b4039	-
IHF	b4193	-
IHF	b4194	-
IHF	b4195	-
IHF	b4196	-
IHF	b4197	-
IHF	b4198	-
IHF	b4192	-
IHF	b3495	+
IHF	b3494	-
IHF	b0140	+
IHF	b3575	+
IHF	b3576	+
IHF	b3577	+
IHF	b3578	+
IHF	b3579	+
IHF	b4026	+
IHF	b4027	+
IHF	b4028	+
IHF	b4029	+
IHF	b4068	-
IlvY	b3773	-
IlvY	b3774	+
IscR	b2531	-
IscR	b0156	-
IscR	b0972	-
IscR	b0973	-
IscR	b0974	-
IscR	b0975	-
IscR	b0976	-
IscR	b0977	-
IscR	b2528	-
IscR	b2530	-
IscR	b2529	-
IscR	b2206	-
IscR	b2203	-
IscR	b2202	-
IscR	b2207	-
IscR	b2208	-
IscR	b2205	-
IscR	b2204	-
IscR	b3414	-
IscR	b2675	+
IscR	b2676	+
IscR	b2673	+
IscR	b2674	+
IscR	b2630	-
IscR	b2631	-
IscR	b1684	+
IscR	b1683	+
IscR	b1682	+
IscR	b1681	+
IscR	b1679	+
IscR	b1680	+
IscR	b1706	+
KdgR	b1850	-
KdgR	b1851	-
KdpE	b0698	+
KdpE	b0697	+
KdpE	b0696	+
KdpE	b4513	+
LacI	b0342	-
LacI	b0343	-
LacI	b0344	-
LeuO	b4366	+
LeuO	b4133	-
LeuO	b0076	+
LeuO	b0076	+-
LeuO	b4365	+
LeuO	b3721	+
LeuO	b3722	+
LeuO	b3723	+
LeuO	b2755	+
LeuO	b2754	+
LeuO	b2760	+
LeuO	b2759	+
LeuO	b2758	+
LeuO	b2757	+
LeuO	b2756	+
LeuO	b1954	-
LeuO	b0074	+
LeuO	b0073	+
LeuO	b0072	+
LeuO	b0071	+
LeuO	b0075	+
LexA	b0226	-
LexA	b4043	-
LexA	b1914	-
LexA	b0225	-
LexA	b1741	-
LexA	b0092	-
LexA	b0231	-
LexA	b3645	-
LexA	b4044	-
LexA	b0799	-
LexA	b1061	-
LexA	b4613	-
LexA	b3066	-
LexA	b0094	-
LexA	b0084	-
LexA	b0890	-
LexA	b0083	-
LexA	b0093	-
LexA	b0089	-
LexA	b0095	-
LexA	b4415	-
LexA	b3558	-
LexA	b0096	-
LexA	b2115	-
LexA	b0087	-
LexA	b0091	-
LexA	b0088	-
LexA	b0085	-
LexA	b0086	-
LexA	b0090	-
LexA	b0708	-
LexA	b0060	-
LexA	b2821	-
LexA	b2699	-
LexA	b2820	-
LexA	b2819	-
LexA	b2616	-
LexA	b2698	-
LexA	b3067	-
LexA	b3065	-
LexA	b1861	-
LexA	b1860	-
LexA	b2009	-
LexA	b4059	-
LexA	b0958	-
LexA	b4347	-
LexA	b4618	-
LexA	b1184	-
LexA	b1183	-
LexA	b4058	-
LexA	b0779	-
LexA	b1913	-
LexA	b3813	-
LexA	b0232	-
LexA	b0233	-
LexA	b0234	-
LexA	b0685	-
LexA	b1728	-
LexA	b1848	-
LldR	b3604	+
LldR	b3604	-
LldR	b3605	+
LldR	b3605	-
LldR	b3603	+
LldR	b3603	-
LrhA	b1891	-
LrhA	b1892	-
LrhA	b2289	+
LrhA	b4313	+
Lrp	b4187	-
Lrp	b0889	-
Lrp	b3418	+
Lrp	b2669	+
Lrp	b2163	+
Lrp	b1241	-
Lrp	b2290	-
Lrp	b3853	-
Lrp	b3276	-
Lrp	b0203	-
Lrp	b2923	+
Lrp	b0908	+
Lrp	b3572	-
Lrp	b4131	+
Lrp	b4132	+
Lrp	b2659	+
Lrp	b1189	-
Lrp	b1190	-
Lrp	b2912	-
Lrp	b4314	+
Lrp	b4316	+
Lrp	b4314	+
Lrp	b4313	+
Lrp	b4318	+
Lrp	b1237	+
Lrp	b4320	+
Lrp	b4315	+
Lrp	b2661	+
Lrp	b2663	+
Lrp	b2662	+
Lrp	b2904	+
Lrp	b2903	+
Lrp	b2905	+
Lrp	b3212	+
Lrp	b3213	+
Lrp	b3214	+
Lrp	b3969	-
Lrp	b3757	-
Lrp	b4008	-
Lrp	b2590	-
Lrp	b3510	-
Lrp	b3509	-
Lrp	b3852	-
Lrp	b3277	-
Lrp	b0202	-
Lrp	b3772	-
Lrp	b3771	-
Lrp	b3770	-
Lrp	ilvG_1	-
Lrp	b3768	-
Lrp	b0078	+
Lrp	b0078	-
Lrp	b0077	+
Lrp	b0077	-
Lrp	b3766	-
Lrp	b3769	-
Lrp	b4669	-
Lrp	b3617	+
Lrp	b1798	-
Lrp	b2660	+
Lrp	b3454	-
Lrp	b3455	-
Lrp	b3457	-
Lrp	b3460	-
Lrp	b3458	-
Lrp	b3456	-
Lrp	b2156	+
Lrp	b4129	-
Lrp	b4439	-
Lrp	b2215	-
Lrp	b1243	-
Lrp	b1244	-
Lrp	b1245	-
Lrp	b1246	-
Lrp	b1247	-
Lrp	b1482	+
Lrp	b1482	-
Lrp	b4376	-
Lrp	b3855	-
Lrp	b3971	-
Lrp	b3759	-
Lrp	b3274	-
Lrp	b4010	-
Lrp	b3272	-
Lrp	b2588	-
Lrp	b0205	-
Lrp	b3854	-
Lrp	b3970	-
Lrp	b3758	-
Lrp	b3275	-
Lrp	b4009	-
Lrp	b2589	-
Lrp	b0204	-
Lrp	b3851	-
Lrp	b3968	-
Lrp	b3756	-
Lrp	b3278	-
Lrp	b4007	-
Lrp	b2591	-
Lrp	b0201	-
Lrp	b1814	-
Lrp	b2913	+
Lrp	b2913	-
Lrp	b0907	+
Lrp	ssrS	-
Lrp	b3616	+
Lrp	b3273	-
Lrp	b3508	-
Lrp	b2211	+
LsrR	b1512	-
LsrR	b1513	-
LsrR	b1516	-
LsrR	b1514	-
LsrR	b1515	-
LsrR	b1517	-
LsrR	b1518	-
LsrR	b1511	-
LsrR	b1519	-
LysR	b2839	-
LysR	b2838	+
MalI	b1620	-
MalI	b1621	-
MalI	b1622	-
MalT	b4036	+
MalT	b4034	+
MalT	b4033	+
MalT	b4032	+
MalT	b4035	+
MalT	b4037	+
MalT	b3417	+
MalT	b3416	+
MalT	b3571	+
MalT	b0403	+
MarA	b1531	+
MarA	b1530	+
MarA	b1014	+
MarA	b4396	-
MarA	b1276	+
MarA	b0463	+
MarA	b3699	+
MarA	b0762	+
MarA	b3507	-
MarA	b2169	+
MarA	b1611	+
MarA	b3510	-
MarA	b3509	-
MarA	b2237	+
MarA	b1532	+
MarA	b4439	+
MarA	b2159	+
MarA	b0851	+
MarA	b0578	+
MarA	b0871	+
MarA	b0950	+
MarA	b0951	+
MarA	b4177	-
MarA	b0852	+
MarA	b3506	-
MarA	b3908	+
MarA	b3035	+
MarA	b3625	+
MarA	b3624	+
MarA	b0447	+
MarA	b0850	+
MarA	b0853	+
MarA	b3036	+
MarA	b3037	+
MarA	b3038	+
MarA	b3508	-
MarA	b1452	+
MarA	b1852	+
MarR	b1531	-
MarR	b1530	-
MarR	b1532	-
MatA	b0294	+
MatA	b1891	-
MatA	b1892	-
MatA	b1921	-
MatA	b0293	+
MatA	b1922	-
MatA	b1923	-
MatA	b1920	-
MazE	b2783	-
MazE	b2782	-
MazE	b2781	-
MazE-MazF	b2783	-
MazE-MazF	b2782	-
MazE-MazF	b2781	-
McbR	b0806	-
McbR	b1257	+
McbR	b1258	+
McbR	b1259	+
MelR	b4118	+
MelR	b4118	-
MelR	b4119	+
MelR	b4119	-
MelR	b4120	+
MelR	b4120	-
MetJ	b3828	-
MetJ	b0605	-
MetJ	b0606	-
MetJ	b2153	-
MetJ	b4013	-
MetJ	b3939	-
MetJ	b3008	-
MetJ	b3829	-
MetJ	b3941	-
MetJ	b0198	-
MetJ	b2942	-
MetJ	b3940	-
MetJ	b0199	-
MetJ	b0197	-
MetJ	b2152	-
MetR	b3828	-
MetR	b2551	+
MetR	b2551	+-
MetR	b2552	+
MetR	b3829	+
MetR	b4019	+
MhpR	b0347	+
MhpR	b0348	+
MhpR	b0349	+
MhpR	b0350	+
MhpR	b0352	+
MhpR	b0351	+
Mlc	b3418	-
Mlc	b1594	-
Mlc	b2417	-
Mlc	b1817	-
Mlc	b1818	-
Mlc	b1819	-
Mlc	b1101	-
Mlc	b2415	-
Mlc	b2416	-
Mlc	b1593	-
MlrA	b4133	+
MlrA	b1040	+
MlrA	b1039	+
MlrA	b1038	+
MlrA	b1037	+
MlrA	b3190	+
MlrA	b3186	+
MlrA	b3185	+
MngR	b0730	-
MngR	b0731	-
MngR	b0732	-
MntR	b0812	-
MntR	b2392	-
MntR	b1821	+
MntR	b4705	-
MntR	b4416	-
ModE	b1221	+
ModE	b2201	+
ModE	b2200	+
ModE	b2199	+
ModE	b2198	+
ModE	b2197	+
ModE	b2196	+
ModE	b2195	+
ModE	b2194	+
ModE	b4382	-
ModE	b4383	-
ModE	b4381	-
ModE	b4384	-
ModE	b0894	-
ModE	b0895	-
ModE	b0896	-
ModE	b2725	+
ModE	b2724	+
ModE	b2723	+
ModE	b2722	+
ModE	b2721	+
ModE	b2720	+
ModE	b2719	+
ModE	b2718	+
ModE	b2717	+
ModE	b0781	+
ModE	b0782	+
ModE	b0783	+
ModE	b0784	+
ModE	b0785	+
ModE	b0763	-
ModE	b0764	-
ModE	b0765	-
ModE	b2206	+
ModE	b2203	+
ModE	b2202	+
ModE	b2207	+
ModE	b2208	+
ModE	b2205	+
ModE	b2204	+
ModE	b1222	+
ModE	b1243	-
ModE	b1244	-
ModE	b1245	-
ModE	b1246	-
ModE	b1247	-
MprA	b2684	-
MprA	b0463	-
MprA	b3699	-
MprA	b2685	-
MprA	b2686	-
MprA	b0553	-
MqsA	b1040	-
MqsA	b3021	-
MqsA	b3022	-
MqsA	b1039	-
MqsA	b1038	-
MqsA	b1037	-
MqsA	b0880	-
MqsA	b2741	-
MraZ	b0081	-
MraZ	b0092	-
MraZ	b0094	-
MraZ	b0084	-
MraZ	b0083	-
MraZ	b0093	-
MraZ	b0089	-
MraZ	b0095	-
MraZ	b0096	-
MraZ	b3742	-
MraZ	b0087	-
MraZ	b0091	-
MraZ	b0088	-
MraZ	b0085	-
MraZ	b0086	-
MraZ	b0090	-
MraZ	b0082	-
MtlR	b3601	-
MtlR	b3599	-
MtlR	b3600	-
MurR	b2427	+-
MurR	b2429	-
MurR	b2428	-
Nac	b3743	-
Nac	b1384	+
Nac	b1988	-
Nac	b0337	+
Nac	b0336	+
Nac	b2661	+
Nac	b2663	+
Nac	b2662	+
Nac	b1761	-
Nac	b3212	-
Nac	b3213	-
Nac	b3214	-
Nac	b3742	-
Nac	b3741	-
Nac	b2393	+
Nac	b1444	+
Nac	b2913	-
Nac	b1440	+
Nac	b1441	+
Nac	b1442	+
Nac	b1443	+
NadR	b0750	-
NadR	b2574	-
NadR	b0931	-
NadR	b0751	-
NagC	b1735	-
NagC	b4398	-
NagC	b0676	-
NagC	b1736	-
NagC	b1738	-
NagC	b1737	-
NagC	b1734	-
NagC	b1733	-
NagC	b0681	-
NagC	b4397	-
NagC	b4399	-
NagC	b4400	-
NagC	b2417	-
NagC	b1061	-
NagC	b3408	?
NagC	b3409	?
NagC	b3410	?
NagC	b4312	+
NagC	b2943	-
NagC	b3729	+
NagC	b3729	-
NagC	b3730	+
NagC	b3730	-
NagC	b1817	-
NagC	b1818	-
NagC	b1819	-
NagC	b0677	-
NagC	b0678	-
NagC	b0679	-
NagC	b4311	-
NagC	b4310	-
NagC	b4309	-
NagC	b2415	-
NagC	b2416	-
NagC	b0675	-
NagC	b0682	-
NagC	b1497	-
NagC	b1498	-
NagC	b1501	-
NanR	b4312	+
NanR	b3225	-
NanR	b4311	-
NanR	b3223	-
NanR	b3222	-
NanR	b4310	-
NanR	b4309	-
NanR	b3224	-
NanR	b3221	-
NanR	b4279	-
NanR	b4280	-
NarL	b0034	-
NarL	b4124	-
NarL	b0620	-
NarL	b3481	-
NarL	b1241	-
NarL	b4139	-
NarL	b2201	-
NarL	b2200	-
NarL	b2199	-
NarL	b2198	-
NarL	b2197	-
NarL	b2196	-
NarL	b2195	-
NarL	b2194	-
NarL	b0618	-
NarL	b0617	-
NarL	b0616	-
NarL	b0615	-
NarL	b0613	-
NarL	b0614	-
NarL	b0886	+
NarL	b0887	+
NarL	b3368	+
NarL	b4138	-
NarL	b4123	-
NarL	b4125	-
NarL	b0894	-
NarL	b0895	-
NarL	b0896	-
NarL	b1591	-
NarL	b0619	-
NarL	b4079	-
NarL	b1474	+
NarL	b1475	+
NarL	b1476	+
NarL	b0904	-
NarL	b4154	-
NarL	b4153	-
NarL	b4152	-
NarL	b4151	-
NarL	b4122	-
NarL	b0873	+
NarL	b0872	+
NarL	b0972	-
NarL	b0973	-
NarL	b0974	-
NarL	b0975	-
NarL	b0976	-
NarL	b0977	-
NarL	b2996	-
NarL	b2995	-
NarL	b2994	-
NarL	b2993	-
NarL	b2992	-
NarL	b2991	-
NarL	b2990	-
NarL	b2997	-
NarL	b0827	+
NarL	b0826	+
NarL	b2206	-
NarL	b2203	-
NarL	b2202	-
NarL	b2207	-
NarL	b2208	-
NarL	b2205	-
NarL	b2204	-
NarL	b1224	+
NarL	b1225	+
NarL	b1227	+
NarL	b1226	+
NarL	b1223	+
NarL	b3476	-
NarL	b3477	-
NarL	b3478	-
NarL	b3479	-
NarL	b3480	-
NarL	b3365	+
NarL	b3367	+
NarL	b3366	+
NarL	b2710	-
NarL	b2711	-
NarL	b4070	+
NarL	b4070	+-
NarL	b4070	-
NarL	b4071	+
NarL	b4071	+-
NarL	b4071	-
NarL	b4072	+
NarL	b4072	+-
NarL	b4072	-
NarL	b4073	+
NarL	b4073	+-
NarL	b4073	-
NarL	b4074	+
NarL	b4074	+-
NarL	b4074	-
NarL	b4075	+
NarL	b4075	+-
NarL	b4075	-
NarL	b4076	+
NarL	b4076	+-
NarL	b4076	-
NarL	b2277	+
NarL	b2287	+
NarL	b2286	+
NarL	b2285	+
NarL	b2284	+
NarL	b2283	+
NarL	b2282	+
NarL	b2281	+
NarL	b2280	+
NarL	b2279	+
NarL	b2278	+
NarL	b2277	+
NarL	b2276	+
NarL	b1335	+
NarL	b0903	-
NarL	b0997	-
NarL	b0996	-
NarL	b0998	-
NarL	b4040	-
NarL	b4039	-
NarL	b1501	+
NarL	b1669	-
NarL	b1670	-
NarL	b1673	-
NarL	b1672	-
NarL	b1671	-
NarL	b1674	-
NarL	b1797	+
NarL	b1587	-
NarL	b1588	-
NarL	b1589	-
NarL	b1590	-
NarL	b1796	+
NarL	b4209	+
NarP	b2201	+
NarP	b2201	-
NarP	b2200	+
NarP	b2200	-
NarP	b2199	+
NarP	b2199	-
NarP	b2198	+
NarP	b2198	-
NarP	b2197	+
NarP	b2197	-
NarP	b2196	+
NarP	b2196	-
NarP	b2195	+
NarP	b2195	-
NarP	b2194	+
NarP	b2194	-
NarP	b3368	+
NarP	b4079	+
NarP	b1474	-
NarP	b1475	-
NarP	b1476	-
NarP	b0873	+
NarP	b0872	+
NarP	b0972	-
NarP	b0973	-
NarP	b0974	-
NarP	b0975	-
NarP	b0976	-
NarP	b0977	-
NarP	b2206	+
NarP	b2206	-
NarP	b2203	+
NarP	b2203	-
NarP	b2202	+
NarP	b2202	-
NarP	b2207	+
NarP	b2207	-
NarP	b2208	+
NarP	b2208	-
NarP	b2205	+
NarP	b2205	-
NarP	b2204	+
NarP	b2204	-
NarP	b3365	+
NarP	b3367	+
NarP	b3366	+
NarP	b2710	-
NarP	b2711	-
NarP	b4070	+
NarP	b4071	+
NarP	b4072	+
NarP	b4073	+
NarP	b4074	+
NarP	b4075	+
NarP	b4076	+
NarP	b1501	-
NarP	b1669	-
NarP	b1670	-
NarP	b1673	-
NarP	b1672	-
NarP	b1671	-
NarP	b1674	-
NarP	b1797	+
NarP	b1796	+
NarP	b4209	+
NemR	b1649	-
NemR	b1651	-
NemR	b1650	-
NhaR	b0020	+
NhaR	b0020	?
NhaR	b0019	+
NhaR	b0019	?
NhaR	b1482	+
NhaR	b1024	+
NhaR	b1023	+
NhaR	b1022	+
NhaR	b1021	+
NikR	b3481	-
NikR	b3476	-
NikR	b3477	-
NikR	b3478	-
NikR	b3479	-
NikR	b3480	-
NimR	b1790	-
NimR	b1791	-
NorR	b2709	-
NorR	b2710	+
NorR	b2711	+
NrdR	b2234	-
NrdR	b2235	-
NrdR	b4238	-
NrdR	b2675	-
NrdR	b2676	-
NrdR	b4237	-
NrdR	b2673	-
NrdR	b2674	-
NrdR	b2236	-
NsrR	b2364	-
NsrR	b1384	-
NsrR	b2731	-
NsrR	b1921	-
NsrR	b1712	-
NsrR	b0889	-
NsrR	b2709	-
NsrR	b0114	-
NsrR	b0115	-
NsrR	b2617	-
NsrR	b4249	-
NsrR	b2143	-
NsrR	b0207	-
NsrR	b1385	-
NsrR	b1922	-
NsrR	b1654	-
NsrR	b0873	-
NsrR	b0872	-
NsrR	b2552	-
NsrR	b2725	-
NsrR	b2724	-
NsrR	b2723	-
NsrR	b2722	-
NsrR	b2721	-
NsrR	b2720	-
NsrR	b2719	-
NsrR	b2718	-
NsrR	b2717	-
NsrR	b2726	-
NsrR	b2727	-
NsrR	b2728	-
NsrR	b2729	-
NsrR	b2730	-
NsrR	b1718	-
NsrR	b1655	-
NsrR	b0353	-
NsrR	b1109	-
NsrR	b4070	-
NsrR	b4071	-
NsrR	b4072	-
NsrR	b4073	-
NsrR	b4074	-
NsrR	b4075	-
NsrR	b4076	-
NsrR	b2560	-
NsrR	b1715	-
NsrR	b1714	-
NsrR	b1713	-
NsrR	b3784	-
NsrR	b3790	-
NsrR	b3788	-
NsrR	b3789	-
NsrR	b3794	-
NsrR	b3793	-
NsrR	b1716	-
NsrR	b1717	-
NsrR	b4417	-
NsrR	b1656	-
NsrR	b1684	-
NsrR	b1683	-
NsrR	b1682	-
NsrR	b1681	-
NsrR	b1679	-
NsrR	b1680	-
NsrR	b2559	-
NsrR	b1920	-
NsrR	b1429	-
NsrR	b1430	-
NsrR	b1719	-
NsrR	b3364	-
NsrR	b3615	-
NsrR	b3786	-
NsrR	b3787	-
NsrR	b3791	-
NsrR	b3792	-
NsrR	b3793	-
NsrR	b3785	-
NsrR	b1407	-
NsrR	b1781	-
NsrR	b1797	-
NsrR	b2732	-
NsrR	b1796	-
NsrR	b4209	-
NtrC	b1987	+
NtrC	b3868	+
NtrC	b3868	-
NtrC	b1988	+
NtrC	b0451	+
NtrC	b2310	+
NtrC	b1747	+
NtrC	b1745	+
NtrC	b1748	+
NtrC	b1746	+
NtrC	b1744	+
NtrC	b1487	+
NtrC	b1486	+
NtrC	b1485	+
NtrC	b1484	+
NtrC	b1483	+
NtrC	b1488	+
NtrC	b3870	+
NtrC	b3870	-
NtrC	b0811	+
NtrC	b0811	-
NtrC	b0450	+
NtrC	b3869	+
NtrC	b3869	-
NtrC	b0810	+
NtrC	b0810	-
NtrC	b0809	+
NtrC	b0809	-
NtrC	b2309	+
NtrC	b2307	+
NtrC	b2306	+
NtrC	b2308	+
NtrC	b3073	+
NtrC	b0854	+
NtrC	b0855	+
NtrC	b0856	+
NtrC	b0857	+
NtrC	b2784	+
NtrC	b1012	+
NtrC	b1011	+
NtrC	b1010	+
NtrC	b1009	+
NtrC	b1008	+
NtrC	b1007	+
NtrC	b1006	+
NtrC	b1783	+
NtrC	b1784	+
NtrC	b3268	+
NtrC	b3269	+
NtrC	b3270	+
NtrC	b3271	+
OmpR	b0435	-
OmpR	b1040	+
OmpR	b1891	-
OmpR	b1892	-
OmpR	b1039	+
OmpR	b1038	+
OmpR	b1037	+
OmpR	b1634	+
OmpR	b4411	-
OmpR	b2344	-
OmpR	b4439	+
OmpR	b0553	-
OmpR	b2215	+
OmpR	b0929	+
OmpR	b0929	+-
OmpR	b0929	-
OmpR	b4444	+
OmpR	b4445	+
OmpR	b1024	-
OmpR	b1023	-
OmpR	b1022	-
OmpR	b1021	-
OmpR	b1480	-
OxyR	b0683	+
OxyR	b3961	-
OxyR	b0605	+
OxyR	b0606	+
OxyR	b0812	+
OxyR	b0604	+
OxyR	b4367	-
OxyR	b2000	-
OxyR	b4321	-
OxyR	b3500	+
OxyR	b0849	+
OxyR	b0873	+
OxyR	b0872	+
OxyR	b0475	+
OxyR	b4435	-
OxyR	b3942	+
OxyR	b2392	+
OxyR	b0851	-
OxyR	b4458	+
OxyR	b0852	-
OxyR	b1684	+
OxyR	b1683	+
OxyR	b1682	+
OxyR	b1681	+
OxyR	b1679	+
OxyR	b1680	+
OxyR	b2582	+
OxyR	b4637	+
OxyR	b4322	-
OxyR	b4323	-
OxyR	b0850	-
OxyR	b0853	-
OxyR	b1203	-
OxyR	b3518	+
PaaX	b1399	-
PaaX	b1388	-
PaaX	b1389	-
PaaX	b1390	-
PaaX	b1391	-
PaaX	b1392	-
PaaX	b1393	-
PaaX	b1394	-
PaaX	b1395	-
PaaX	b1396	-
PaaX	b1397	-
PaaX	b1398	-
PaaX	b1400	-
PaaX	b1387	-
PdhR	b0081	-
PdhR	b0113	-
PdhR	b0114	-
PdhR	b0115	-
PdhR	b0432	-
PdhR	b0431	-
PdhR	b0430	-
PdhR	b0429	-
PdhR	b0428	-
PdhR	b0092	-
PdhR	b4291	+
PdhR	b4290	+
PdhR	b4289	+
PdhR	b4288	+
PdhR	b4287	+
PdhR	b0094	-
PdhR	b0084	-
PdhR	b0083	-
PdhR	b0093	-
PdhR	b0089	-
PdhR	b0095	-
PdhR	b1101	-
PdhR	b2976	-
PdhR	b2979	-
PdhR	b4468	-
PdhR	b4467	-
PdhR	b2977	-
PdhR	b2579	-
PdhR	b0154	-
PdhR	b0460	-
PdhR	b0116	-
PdhR	b0096	-
PdhR	b0087	-
PdhR	b0091	-
PdhR	b0088	-
PdhR	b0085	-
PdhR	b0086	-
PdhR	b0090	-
PdhR	b1109	-
PdhR	b0082	-
PdhR	b0461	-
PepA	b4260	-
PepA	b0032	-
PepA	b0033	-
PgrR	b1326	-
PgrR	b1327	-
PgrR	b4525	-
PgrR	b4673	-
PhoB	b2916	+
PhoB	b0080	-
PhoB	b0571	+
PhoB	b1384	-
PhoB	b3515	+
PhoB	b3516	+
PhoB	b0399	+
PhoB	b0330	-
PhoB	b1540	+
PhoB	b4115	+
PhoB	b1982	+
PhoB	b1597	+
PhoB	b0575	+
PhoB	b0574	+
PhoB	b0572	+
PhoB	b0573	+
PhoB	b0570	+
PhoB	b1850	-
PhoB	b1782	+
PhoB	b0929	+
PhoB	b4106	+
PhoB	b4105	+
PhoB	b4104	+
PhoB	b4103	+
PhoB	b4102	+
PhoB	b4101	+
PhoB	b4100	+
PhoB	b4099	+
PhoB	b4098	+
PhoB	b4097	+
PhoB	b4096	+
PhoB	b4095	+
PhoB	b4094	+
PhoB	b4093	+
PhoB	b4092	+
PhoB	b0383	+
PhoB	b0241	+
PhoB	b1020	+
PhoB	b1129	+
PhoB	b0400	+
PhoB	b3724	+
PhoB	b2987	-
PhoB	b4030	+
PhoB	b0384	+
PhoB	b3726	+
PhoB	b3725	+
PhoB	b3727	+
PhoB	b3728	+
PhoB	b0397	-
PhoB	b0398	-
PhoB	b2465	+
PhoB	b3452	+
PhoB	b3452	-
PhoB	b3453	+
PhoB	b3453	-
PhoB	b3450	+
PhoB	b3450	-
PhoB	b3451	+
PhoB	b3451	-
PhoB	b3449	+
PhoB	b3449	-
PhoB	b3615	+
PhoB	b1970	+
PhoB	b2063	+
PhoB	b3521	+
PhoP	b1275	+
PhoP	b3512	+
PhoP	b3515	+
PhoP	b1130	+
PhoP	b1130	-
PhoP	b1608	+
PhoP	b4241	-
PhoP	b1499	-
PhoP	b0463	-
PhoP	b3699	-
PhoP	b3359	-
PhoP	b0557	+
PhoP	b3227	-
PhoP	b2344	+
PhoP	b3429	+
PhoP	b3432	+
PhoP	b3430	+
PhoP	b3428	+
PhoP	b3431	+
PhoP	b3510	+
PhoP	b3509	+
PhoP	b3511	+
PhoP	b0154	+
PhoP	b1160	+
PhoP	b3571	+
PhoP	b3939	+
PhoP	b3940	+
PhoP	b1826	+
PhoP	b4698	+
PhoP	b4242	+
PhoP	b4702	+
PhoP	b0677	+
PhoP	b0565	+
PhoP	b0622	+
PhoP	b1129	+
PhoP	b1129	-
PhoP	b4005	+
PhoP	b4006	+
PhoP	b1609	+
PhoP	b1012	+
PhoP	b1011	+
PhoP	b1010	+
PhoP	b1009	+
PhoP	b1008	+
PhoP	b1007	+
PhoP	b1006	+
PhoP	b1500	-
PhoP	b1641	+
PhoP	b1641	-
PhoP	b3035	+
PhoP	b0841	+
PhoP	b1501	-
PhoP	b3036	+
PhoP	b3037	+
PhoP	b3038	+
PhoP	b3508	+
PhoP	b4599	+
PhoP	b3207	+
PrpR	b0330	-
PrpR	b0331	+
PrpR	b0333	+
PrpR	b0334	+
PrpR	b0335	+
PspF	b1303	-
PspF	b1304	+
PspF	b1305	+
PspF	b1306	+
PspF	b1307	+
PspF	b1308	+
PspF	b4050	+
PurR	b1658	-
PurR	b0032	-
PurR	b0033	-
PurR	b0337	-
PurR	b0336	-
PurR	b2313	-
PurR	b2904	-
PurR	b2903	-
PurR	b2905	-
PurR	b2553	-
PurR	b2551	-
PurR	b2507	-
PurR	b2508	-
PurR	b1132	-
PurR	b1207	-
PurR	b4177	-
PurR	b1131	-
PurR	b2476	-
PurR	b4005	-
PurR	b0523	-
PurR	b2312	-
PurR	b4006	-
PurR	b0522	-
PurR	b2557	-
PurR	b2499	-
PurR	b2500	-
PurR	b1062	-
PurR	b0945	-
PurR	b2938	-
PurR	b2937	-
PurR	b2311	-
PutA	b1014	-
PutA	b1015	-
PuuR	b1299	-
PuuR	b1297	-
PuuR	b1301	-
PuuR	b1300	-
PuuR	b1298	-
PuuR	b1302	-
PuuR	b1296	-
QseB	b1891	+
QseB	b1892	+
QseB	b3025	+
QseB	b3026	+
RbsR	b3753	-
RbsR	b1623	+
RbsR	b4005	-
RbsR	b4006	-
RbsR	b3749	-
RbsR	b3751	-
RbsR	b3750	-
RbsR	b3748	-
RbsR	b3752	-
RcdA	b1040	+
RcdA	b1597	+
RcdA	b1163	+
RcdA	b1039	+
RcdA	b1038	+
RcdA	b1037	+
RcdA	b0958	-
RcdA	b0277	-
RcdA	b1536	+
RclR	b0304	+
RclR	b0303	+
RclR	b0301	+
RcnR	b2105	-
RcnR	b2106	-
RcnR	b2107	-
RcsAB	b1040	-
RcsAB	b1891	-
RcsAB	b1892	-
RcsAB	b1951	+
RcsAB	b1039	-
RcsAB	b1038	-
RcsAB	b1037	-
RcsAB	b2059	+
RcsAB	b2058	+
RcsAB	b2062	+
RcsAB	b2061	+
RcsAB	b2060	+
RcsAB	b4026	+
RcsAB	b4027	+
RcsAB	b4028	+
RcsAB	b4029	+
RcsB	b3516	-
RcsB	b1499	+
RcsB	b1481	+
RcsB	b0094	+
RcsB	b0095	+
RcsB	b3517	-
RcsB	b1493	+
RcsB	b1492	+
RcsB	b4452	+
RcsB	b3510	+
RcsB	b3509	+
RcsB	b3511	+
RcsB	b0891	+
RcsB	b1283	+
RcsB	b1482	+
RcsB	b0892	+
RcsB	b4431	+
RcsB	b1500	+
RcsB	b1480	+
RcsB	b1501	+
RcsB	b3508	+
RcsB-BglJ	b0076	+
RcsB-BglJ	b3721	+
RcsB-BglJ	b3722	+
RcsB-BglJ	b3723	+
RcsB-BglJ	b2115	+
RcsB-BglJ	b3188	+
RcsB-BglJ	b1877	+
RcsB-BglJ	b3027	+
RcsB-BglJ	b3680	+
RcsB-BglJ	b0392	+
RcsB-BglJ	b1408	+
RcsB-BglJ	b1409	+
RcsB-BglJ	b1410	+
RcsB-BglJ	b1411	+
RcsB-BglJ	b1762	+
RcsB-BglJ	b3013	+
RelB	b1564	-
RelB	b1563	-
RelB	b1562	-
RelB-RelE	b1564	-
RelB-RelE	b1563	-
RelB-RelE	b1562	-
RhaR	b3906	+
RhaR	b3905	+
RhaS	b3906	+
RhaS	b3906	?
RhaS	b3905	+
RhaS	b3905	?
RhaS	b3903	+
RhaS	b3904	+
RhaS	b3902	+
RhaS	b3907	+
RhaS	b3907	?
Rob	b1531	+
Rob	b1530	+
Rob	b4396	-
Rob	b1276	+
Rob	b0463	+
Rob	b3699	+
Rob	b0762	+
Rob	b3800	+
Rob	b1611	+
Rob	b2237	+
Rob	b0819	+
Rob	b1532	+
Rob	b4439	+
Rob	b2558	+
Rob	b2159	+
Rob	b0851	+
Rob	b0578	+
Rob	b0852	+
Rob	b3908	+
Rob	b3035	+
Rob	b0850	+
Rob	b0853	+
Rob	b3036	+
Rob	b3037	+
Rob	b3038	+
Rob	b1852	+
RstA	b1040	-
RstA	b1597	+
RstA	b1039	-
RstA	b1038	-
RstA	b1037	-
RstA	b1224	+
RstA	b1225	+
RstA	b1227	+
RstA	b1226	+
RstA	b0929	-
RtcR	b4475	+
RtcR	b3421	+
RutR	b3515	-
RutR	b3516	-
RutR	b1649	-
RutR	b1013	-
RutR	b0032	+
RutR	b0033	+
RutR	b0592	-
RutR	b1651	-
RutR	b1650	-
RutR	b1285	-
RutR	b1012	-
RutR	b1011	-
RutR	b1010	-
RutR	b1009	-
RutR	b1008	-
RutR	b1007	-
RutR	b1006	-
SdiA	b3515	+
SdiA	b0094	-
SdiA	b0093	+
SdiA	b0093	-
SdiA	b0095	-
SdiA	b1707	+
SgrR	b0069	-
SgrR	b2379	+
SgrR	b0070	+
SgrR	b4577	+
SgrR	b4662	+
SgrR	sroA	-
SgrR	b0068	-
SgrR	b0067	-
SgrR	b0066	-
Sigma19	b4291	+
Sigma19	b4290	+
Sigma19	b4289	+
Sigma19	b4288	+
Sigma19	b4287	+
Sigma24	b0606	+
Sigma24	b0050	+
Sigma24	b0049	+
Sigma24	b3057	+
Sigma24	b0177	+
Sigma24	b2512	+
Sigma24	b2477	+
Sigma24	b2595	+
Sigma24	b2617	+
Sigma24	b2494	+
Sigma24	b1112	+
Sigma24	b3056	+
Sigma24	b0438	+
Sigma24	b4438	+
Sigma24	b0161	+
Sigma24	b2511	+
Sigma24	b0184	+
Sigma24	b2893	+
Sigma24	b0294	+
Sigma24	b3546	+
Sigma24	b0554	+
Sigma24	b0180	+
Sigma24	b0443	+
Sigma24	b3347	+
Sigma24	b1902	+
Sigma24	b3340	+
Sigma24	b3181	+
Sigma24	b3323	+
Sigma24	b3322	+
Sigma24	b0873	+
Sigma24	b0872	+
Sigma24	b4415	+
Sigma24	b3203	+
Sigma24	b3190	+
Sigma24	b3558	+
Sigma24	b4357	+
Sigma24	b1653	+
Sigma24	b0439	+
Sigma24	b3200	+
Sigma24	b3201	+
Sigma24	b0054	+
Sigma24	b0181	+
Sigma24	b0182	+
Sigma24	b0179	+
Sigma24	b2378	+
Sigma24	b3580	+
Sigma24	b3416	+
Sigma24	b2961	+
Sigma24	MicL	+
Sigma24	b0577	+
Sigma24	b3096	+
Sigma24	b1465	+
Sigma24	b1466	+
Sigma24	b0052	+
Sigma24	b1129	+
Sigma24	b4041	+
Sigma24	b2891	+
Sigma24	b4160	+
Sigma24	b0679	+
Sigma24	b3205	+
Sigma24	b0304	+
Sigma24	b0303	+
Sigma24	b0301	+
Sigma24	b2892	+
Sigma24	b0472	+
Sigma24	b3619	+
Sigma24	b0183	+
Sigma24	b2631	+
Sigma24	b3067	+
Sigma24	b3461	+
Sigma24	b3202	+
Sigma24	b0555	+
Sigma24	b2572	+
Sigma24	b2571	+
Sigma24	b2570	+
Sigma24	b0176	+
Sigma24	b0051	+
Sigma24	b1013	+
Sigma24	b4417	+
Sigma24	b0556	+
Sigma24	b0377	+
Sigma24	b3583	+
Sigma24	b3581	+
Sigma24	b3582	+
Sigma24	b0178	+
Sigma24	b0053	+
Sigma24	b3339	+
Sigma24	b3923	+
Sigma24	b3621	+
Sigma24	b3620	+
Sigma24	b3622	+
Sigma24	b2062	+
Sigma24	b2061	+
Sigma24	b2060	+
Sigma24	b0378	+
Sigma24	b0471	+
Sigma24	b0691	+
Sigma24	b0691	+
Sigma24	b1643	+
Sigma24	b1644	+
Sigma24	b1645	+
Sigma24	b1707	+
Sigma24	b1806	+
Sigma24	b2419	+
Sigma24	b2420	+
Sigma24	b2431	+
Sigma24	b2432	+
Sigma24	b2495	+
Sigma24	b2958	+
Sigma24	b2970	+
Sigma24	b3055	+
Sigma24	b3527	+
Sigma24	b3575	+
Sigma24	b3576	+
Sigma24	b3577	+
Sigma24	b3578	+
Sigma24	b3579	+
Sigma24	b3656	+
Sigma24	b3657	+
Sigma24	b3688	+
Sigma24	b3712	+
Sigma24	b3713	+
Sigma24	b3922	+
Sigma24	b1810	+
Sigma24	b3095	+
Sigma24	b3150	+
Sigma24	b4216	+
Sigma28	b3072	+
Sigma28	b1888	+
Sigma28	b1883	+
Sigma28	b1884	+
Sigma28	b1887	+
Sigma28	b1882	+
Sigma28	b1881	+
Sigma28	b4109	+
Sigma28	b1082	+
Sigma28	b1083	+
Sigma28	b1071	+
Sigma28	b1070	+
Sigma28	b1922	+
Sigma28	b1923	+
Sigma28	b1924	+
Sigma28	b1937	+
Sigma28	b1938	+
Sigma28	b1939	+
Sigma28	b1940	+
Sigma28	b1941	+
Sigma28	b1942	+
Sigma28	b1943	+
Sigma28	b1944	+
Sigma28	b1945	+
Sigma28	b1946	+
Sigma28	b1947	+
Sigma28	b1948	+
Sigma28	b1949	+
Sigma28	b1950	+
Sigma28	b1925	+
Sigma28	b1926	+
Sigma28	b1921	+
Sigma28	b1566	+
Sigma28	b0154	+
Sigma28	b1208	+
Sigma28	b1209	+
Sigma28	b0763	+
Sigma28	b0764	+
Sigma28	b0765	+
Sigma28	b1890	+
Sigma28	b1889	+
Sigma28	b1243	+
Sigma28	b1244	+
Sigma28	b1245	+
Sigma28	b1246	+
Sigma28	b1247	+
Sigma28	b3525	+
Sigma28	b2826	+
Sigma28	b2825	+
Sigma28	b2823	+
Sigma28	b1207	+
Sigma28	b2822	+
Sigma28	b1885	+
Sigma28	b1886	+
Sigma28	b1920	+
Sigma28	b1421	+
Sigma28	b4355	+
Sigma28	b1742	+
Sigma28	b0246	+
Sigma28	b0248	+
Sigma28	b1194	+
Sigma28	b1915	+
Sigma28	b2737	+
Sigma28	b2824	+
Sigma28	b3490	+
Sigma28	b4083	+
Sigma28	b4110	+
Sigma28	b0250	+
Sigma28	b0249	+
Sigma28	b0247	+
Sigma28	b4504	+
Sigma28	b0245	+
Sigma28	b1760	+
Sigma32	b2296	+
Sigma32	b4115	+
Sigma32	b2290	+
Sigma32	b3853	+
Sigma32	b3276	+
Sigma32	b0203	+
Sigma32	b1060	+
Sigma32	b0126	+
Sigma32	b2755	+
Sigma32	b2754	+
Sigma32	b2757	+
Sigma32	b2756	+
Sigma32	b2592	+
Sigma32	b0437	+
Sigma32	b0438	+
Sigma32	b0080	+
Sigma32	b4397	+
Sigma32	b4398	+
Sigma32	b4399	+
Sigma32	b0015	+
Sigma32	b0014	+
Sigma32	b2893	+
Sigma32	b3094	+
Sigma32	b0028	+
Sigma32	b3178	+
Sigma32	b4140	+
Sigma32	b1779	+
Sigma32	b0680	+
Sigma32	b3969	+
Sigma32	b3757	+
Sigma32	b4008	+
Sigma32	b2590	+
Sigma32	b4143	+
Sigma32	b4142	+
Sigma32	b2614	+
Sigma32	b4175	+
Sigma32	b4174	+
Sigma32	b4173	+
Sigma32	b4172	+
Sigma32	b4259	+
Sigma32	b3401	+
Sigma32	b3400	+
Sigma32	b3931	+
Sigma32	b3932	+
Sigma32	b0966	+
Sigma32	b0012	+
Sigma32	b0473	+
Sigma32	b1829	+
Sigma32	b3687	+
Sigma32	b3686	+
Sigma32	b0026	+
Sigma32	b3852	+
Sigma32	b3277	+
Sigma32	b0202	+
Sigma32	b0029	+
Sigma32	b1279	+
Sigma32	b1280	+
Sigma32	b1380	+
Sigma32	b0630	+
Sigma32	b0657	+
Sigma32	b0439	+
Sigma32	b0027	+
Sigma32	b4013	+
Sigma32	b0353	+
Sigma32	b4171	+
Sigma32	b0731	+
Sigma32	b0732	+
Sigma32	b1326	+
Sigma32	b4170	+
Sigma32	b3635	+
Sigma32	b2193	+
Sigma32	b3414	+
Sigma32	b0416	+
Sigma32	b2131	+
Sigma32	b0418	+
Sigma32	b2560	+
Sigma32	b1130	+
Sigma32	b1129	+
Sigma32	b2700	+
Sigma32	b1838	+
Sigma32	b0441	+
Sigma32	b3498	+
Sigma32	b1281	+
Sigma32	b2597	+
Sigma32	b0059	+
Sigma32	b2954	+
Sigma32	b2892	+
Sigma32	b3619	+
Sigma32	b0415	+
Sigma32	b3179	+
Sigma32	b2630	+
Sigma32	b3936	+
Sigma32	b3067	+
Sigma32	b3855	+
Sigma32	b3971	+
Sigma32	b3759	+
Sigma32	b3274	+
Sigma32	b4010	+
Sigma32	b3272	+
Sigma32	b2588	+
Sigma32	b0205	+
Sigma32	b3854	+
Sigma32	b3970	+
Sigma32	b3758	+
Sigma32	b3275	+
Sigma32	b4009	+
Sigma32	b2589	+
Sigma32	b0204	+
Sigma32	b3851	+
Sigma32	b3968	+
Sigma32	b3756	+
Sigma32	b3278	+
Sigma32	b4007	+
Sigma32	b2591	+
Sigma32	b0201	+
Sigma32	b3497	+
Sigma32	b1814	+
Sigma32	b4392	+
Sigma32	b2559	+
Sigma32	b0417	+
Sigma32	b3273	+
Sigma32	b1274	+
Sigma32	tpke11	+
Sigma32	b3965	+
Sigma32	b1323	+
Sigma32	b4258	+
Sigma32	b3621	+
Sigma32	b3620	+
Sigma32	b3622	+
Sigma32	b2894	+
Sigma32	b0209	+
Sigma32	b0210	+
Sigma32	b0218	+
Sigma32	b0492	+
Sigma32	b0631	+
Sigma32	b0658	+
Sigma32	b0659	+
Sigma32	b0660	+
Sigma32	b0685	+
Sigma32	b1001	+
Sigma32	b1056	+
Sigma32	b1057	+
Sigma32	b1282	+
Sigma32	b1322	+
Sigma32	b1321	+
Sigma32	b1327	+
Sigma32	b1499	+
Sigma32	b1664	+
Sigma32	b1780	+
Sigma32	b2123	+
Sigma32	b2128	+
Sigma32	b2129	+
Sigma32	b2130	+
Sigma32	b2291	+
Sigma32	b2955	+
Sigma32	b3293	+
Sigma32	b3562	+
Sigma32	b3594	+
Sigma32	b3989	+
Sigma32	b4279	+
Sigma32	b4280	+
Sigma32	b4297	+
Sigma32	b4298	+
Sigma32	b4299	+
Sigma32	b4342	+
Sigma32	b4525	+
Sigma32	b4673	+
Sigma32	b2641	+
Sigma32	b2640	+
Sigma32	b3279	+
Sigma32	b3399	+
Sigma32	b3292	+
Sigma38	b1276	+
Sigma38	b2213	+
Sigma38	b1241	+
Sigma38	b3588	+
Sigma38	b2068	+
Sigma38	b2212	+
Sigma38	b1453	+
Sigma38	b0564	+
Sigma38	b1901	+
Sigma38	b1900	+
Sigma38	b4460	+
Sigma38	b1166	+
Sigma38	b0863	+
Sigma38	b0861	+
Sigma38	b0864	+
Sigma38	b0862	+
Sigma38	b1597	+
Sigma38	b1747	+
Sigma38	b1745	+
Sigma38	b1748	+
Sigma38	b1746	+
Sigma38	b1744	+
Sigma38	b2079	+
Sigma38	b2078	+
Sigma38	b4149	+
Sigma38	b0435	+
Sigma38	b4189	+
Sigma38	b1000	+
Sigma38	b0999	+
Sigma38	b1661	+
Sigma38	b3911	+
Sigma38	b3912	+
Sigma38	b0240	+
Sigma38	b2417	+
Sigma38	b1042	+
Sigma38	b1041	+
Sigma38	b1043	+
Sigma38	b1040	+
Sigma38	b1039	+
Sigma38	b1038	+
Sigma38	b1037	+
Sigma38	b2659	+
Sigma38	b2696	+
Sigma38	b1487	+
Sigma38	b1486	+
Sigma38	b1485	+
Sigma38	b1484	+
Sigma38	b1483	+
Sigma38	b1488	+
Sigma38	b0385	+
Sigma38	b1200	+
Sigma38	b1199	+
Sigma38	b1198	+
Sigma38	b1201	+
Sigma38	b3012	+
Sigma38	b0207	+
Sigma38	b3701	+
Sigma38	b4411	+
Sigma38	b3613	+
Sigma38	b2369	+
Sigma38	b2370	+
Sigma38	b2344	+
Sigma38	b2912	+
Sigma38	b2097	+
Sigma38	b3361	+
Sigma38	b0142	+
Sigma38	b0094	+
Sigma38	b0093	+
Sigma38	b0095	+
Sigma38	b1611	+
Sigma38	b2661	+
Sigma38	b2663	+
Sigma38	b2662	+
Sigma38	b3517	+
Sigma38	b1493	+
Sigma38	b1492	+
Sigma38	b3512	+
Sigma38	b3515	+
Sigma38	b3516	+
Sigma38	b4452	+
Sigma38	b3429	+
Sigma38	b3430	+
Sigma38	b3428	+
Sigma38	b3049	+
Sigma38	b3612	+
Sigma38	b1967	+
Sigma38	b3510	+
Sigma38	b3509	+
Sigma38	b4480	+
Sigma38	b2552	+
Sigma38	b3395	+
Sigma38	b3394	+
Sigma38	b3393	+
Sigma38	b3392	+
Sigma38	b0139	+
Sigma38	b1712	+
Sigma38	b0912	+
Sigma38	b3044	+
Sigma38	insCD-5	+
Sigma38	b3045	+
Sigma38	b0256	+
Sigma38	b0255	+
Sigma38	b0257	+
Sigma38	b4326	+
Sigma38	b1732	+
Sigma38	b0186	+
Sigma38	b2660	+
Sigma38	b1513	+
Sigma38	b1516	+
Sigma38	b1514	+
Sigma38	b1515	+
Sigma38	b1517	+
Sigma38	b1518	+
Sigma38	b2687	+
Sigma38	b2074	+
Sigma38	b2075	+
Sigma38	b2076	+
Sigma38	b2077	+
Sigma38	b3513	+
Sigma38	b3514	+
Sigma38	b3741	+
Sigma38	b4233	+
Sigma38	b1051	+
Sigma38	b2733	+
Sigma38	b1469	+
Sigma38	b0019	+
Sigma38	b0020	+
Sigma38	b0929	+
Sigma38	b1377	+
Sigma38	b1283	+
Sigma38	b1482	+
Sigma38	b2131	+
Sigma38	b1896	+
Sigma38	b1897	+
Sigma38	b3961	+
Sigma38	b3073	+
Sigma38	b1444	+
Sigma38	b0143	+
Sigma38	b2411	+
Sigma38	b1285	+
Sigma38	b1723	+
Sigma38	b0708	+
Sigma38	b0871	+
Sigma38	b2501	+
Sigma38	b2502	+
Sigma38	b4111	+
Sigma38	b1297	+
Sigma38	b1301	+
Sigma38	b1300	+
Sigma38	b1298	+
Sigma38	b1302	+
Sigma38	b1296	+
Sigma38	b1299	+
Sigma38	b1676	+
Sigma38	b3700	+
Sigma38	b3929	+
Sigma38	b3995	+
Sigma38	b3740	+
Sigma38	b1234	+
Sigma38	b1235	+
Sigma38	b1646	+
Sigma38	b2937	+
Sigma38	b2965	+
Sigma38	b1480	+
Sigma38	ssrS	+
Sigma38	b0726	+
Sigma38	b0727	+
Sigma38	b0728	+
Sigma38	b0729	+
Sigma38	b2464	+
Sigma38	b1519	+
Sigma38	b2465	+
Sigma38	b3035	+
Sigma38	b1197	+
Sigma38	b3519	+
Sigma38	b3494	+
Sigma38	b1004	+
Sigma38	b1749	+
Sigma38	b0065	+
Sigma38	b0140	+
Sigma38	b0707	+
Sigma38	b0803	+
Sigma38	b0865	+
Sigma38	b1003	+
Sigma38	b1164	+
Sigma38	b1257	+
Sigma38	b1258	+
Sigma38	b1259	+
Sigma38	b1284	+
Sigma38	b4596	+
Sigma38	b1407	+
Sigma38	b1378	+
Sigma38	b1440	+
Sigma38	b1441	+
Sigma38	b1442	+
Sigma38	b1443	+
Sigma38	b1473	+
Sigma38	b1669	+
Sigma38	b1670	+
Sigma38	b1673	+
Sigma38	b1672	+
Sigma38	b1671	+
Sigma38	b1674	+
Sigma38	b2128	+
Sigma38	b2129	+
Sigma38	b2130	+
Sigma38	b2163	+
Sigma38	b2446	+
Sigma38	b2447	+
Sigma38	b2665	+
Sigma38	b2922	+
Sigma38	b3036	+
Sigma38	b3037	+
Sigma38	b3038	+
Sigma38	b3508	+
Sigma38	b3491	+
Sigma38	b3524	+
Sigma38	b3555	+
Sigma38	b3614	+
Sigma38	b3862	+
Sigma38	b4354	+
Sigma38	b1165	+
Sigma38	b1167	+
Sigma38	b3046	+
Sigma38	b3047	+
Sigma38	b3048	+
Sigma38	b4217	+
Sigma38	b1857	+
Sigma54	b2470	+
Sigma54	b4067	+
Sigma54	b0451	+
Sigma54	b2310	+
Sigma54	b3800	+
Sigma54	b1747	+
Sigma54	b1745	+
Sigma54	b1748	+
Sigma54	b1746	+
Sigma54	b1744	+
Sigma54	b2222	+
Sigma54	b2224	+
Sigma54	b2221	+
Sigma54	b2223	+
Sigma54	b1218	+
Sigma54	b0240	+
Sigma54	b3227	+
Sigma54	b1487	+
Sigma54	b1486	+
Sigma54	b1485	+
Sigma54	b1484	+
Sigma54	b1483	+
Sigma54	b1488	+
Sigma54	b3673	+
Sigma54	b4079	+
Sigma54	b2731	+
Sigma54	b1891	+
Sigma54	b1892	+
Sigma54	b2492	+
Sigma54	b4441	+
Sigma54	b3870	+
Sigma54	b3868	+
Sigma54	b0811	+
Sigma54	b0450	+
Sigma54	b3869	+
Sigma54	b0810	+
Sigma54	b0809	+
Sigma54	b0655	+
Sigma54	b0654	+
Sigma54	b0653	+
Sigma54	b0652	+
Sigma54	b2309	+
Sigma54	b2307	+
Sigma54	b2306	+
Sigma54	b2308	+
Sigma54	b0473	+
Sigma54	b2725	+
Sigma54	b2724	+
Sigma54	b2723	+
Sigma54	b2722	+
Sigma54	b2721	+
Sigma54	b2720	+
Sigma54	b2719	+
Sigma54	b2718	+
Sigma54	b2717	+
Sigma54	b2713	+
Sigma54	b2481	+
Sigma54	b2482	+
Sigma54	b2483	+
Sigma54	b2484	+
Sigma54	b2485	+
Sigma54	b2486	+
Sigma54	b2487	+
Sigma54	b2488	+
Sigma54	b2489	+
Sigma54	b2490	+
Sigma54	b2491	+
Sigma54	b2726	+
Sigma54	b2727	+
Sigma54	b2728	+
Sigma54	b2729	+
Sigma54	b2730	+
Sigma54	b2712	+
Sigma54	b3686	+
Sigma54	b1988	+
Sigma54	b3476	+
Sigma54	b3477	+
Sigma54	b3478	+
Sigma54	b3479	+
Sigma54	b3480	+
Sigma54	b3481	+
Sigma54	b2710	+
Sigma54	b2711	+
Sigma54	b0854	+
Sigma54	b0855	+
Sigma54	b0856	+
Sigma54	b0857	+
Sigma54	b0331	+
Sigma54	b0333	+
Sigma54	b0334	+
Sigma54	b0335	+
Sigma54	b1304	+
Sigma54	b1305	+
Sigma54	b1306	+
Sigma54	b1307	+
Sigma54	b1308	+
Sigma54	b4050	+
Sigma54	b1296	+
Sigma54	b2184	+
Sigma54	b2784	+
Sigma54	b3902	+
Sigma54	b3461	+
Sigma54	b4475	+
Sigma54	b3421	+
Sigma54	b3422	+
Sigma54	b1012	+
Sigma54	b1011	+
Sigma54	b1010	+
Sigma54	b1009	+
Sigma54	b1008	+
Sigma54	b1007	+
Sigma54	b1006	+
Sigma54	sroC	+
Sigma54	b2879	+
Sigma54	b2866	+
Sigma54	b2867	+
Sigma54	b2868	+
Sigma54	b0045	+
Sigma54	b0319	+
Sigma54	b1783	+
Sigma54	b1784	+
Sigma54	b2878	+
Sigma54	b3268	+
Sigma54	b3269	+
Sigma54	b3270	+
Sigma54	b3271	+
Sigma54	b3521	+
Sigma54	b4002	+
Sigma54	b4004	+
Sigma54	b4003	+
Sigma70	b0185	+
Sigma70	b3255	+
Sigma70	b3256	+
Sigma70	b2316	+
Sigma70	b4015	+
Sigma70	b4014	+
Sigma70	b0114	+
Sigma70	b0115	+
Sigma70	b4016	+
Sigma70	b1276	+
Sigma70	b0118	+
Sigma70	b1094	+
Sigma70	b2563	+
Sigma70	b0463	+
Sigma70	b3699	+
Sigma70	b2470	+
Sigma70	b0462	+
Sigma70	b3266	+
Sigma70	b0464	+
Sigma70	b0762	+
Sigma70	b4069	+
Sigma70	b4067	+
Sigma70	b1623	+
Sigma70	b3665	+
Sigma70	b4117	+
Sigma70	b3135	+
Sigma70	b3138	+
Sigma70	b3139	+
Sigma70	b3140	+
Sigma70	b3141	+
Sigma70	b3131	+
Sigma70	b3136	+
Sigma70	b3133	+
Sigma70	b3134	+
Sigma70	b0605	+
Sigma70	b0606	+
Sigma70	b4187	+
Sigma70	b2379	+
Sigma70	b3853	+
Sigma70	b3276	+
Sigma70	b0203	+
Sigma70	b2397	+
Sigma70	b2396	+
Sigma70	b1415	+
Sigma70	b2212	+
Sigma70	b0512	+
Sigma70	b0516	+
Sigma70	b0517	+
Sigma70	b0515	+
Sigma70	b4087	+
Sigma70	b4088	+
Sigma70	b4086	+
Sigma70	b4085	+
Sigma70	b2435	+
Sigma70	b4169	+
Sigma70	b4150	+
Sigma70	b0433	+
Sigma70	b1927	+
Sigma70	b2957	+
Sigma70	b0980	+
Sigma70	b0979	+
Sigma70	b0978	+
Sigma70	b4592	+
Sigma70	b0564	+
Sigma70	b0469	+
Sigma70	b0062	+
Sigma70	b0063	+
Sigma70	b0064	+
Sigma70	b0061	+
Sigma70	b2841	+
Sigma70	b1901	+
Sigma70	b1900	+
Sigma70	b4460	+
Sigma70	b0396	+
Sigma70	b4401	+
Sigma70	b4550	+
Sigma70	b2818	+
Sigma70	b3959	+
Sigma70	b3958	+
Sigma70	b3359	+
Sigma70	b3957	+
Sigma70	b0273	+
Sigma70	b3172	+
Sigma70	b3960	+
Sigma70	b4254	+
Sigma70	b2923	+
Sigma70	b2691	+
Sigma70	b3237	+
Sigma70	b1876	+
Sigma70	b0536	+
Sigma70	b2694	+
Sigma70	b2348	+
Sigma70	b3796	+
Sigma70	b2693	+
Sigma70	b2692	+
Sigma70	b0908	+
Sigma70	b3389	+
Sigma70	b2601	+
Sigma70	b0754	+
Sigma70	b1704	+
Sigma70	b3390	+
Sigma70	b0388	+
Sigma70	b0390	+
Sigma70	b0112	+
Sigma70	b4704	+
Sigma70	b3502	+
Sigma70	b3503	+
Sigma70	b3501	+
Sigma70	b0863	+
Sigma70	b0860	+
Sigma70	b0861	+
Sigma70	b0864	+
Sigma70	b0862	+
Sigma70	b2716	+
Sigma70	b2715	+
Sigma70	b3744	+
Sigma70	b3743	+
Sigma70	b1977	+
Sigma70	b1986	+
Sigma70	b1989	+
Sigma70	b4139	+
Sigma70	b0216	+
Sigma70	b1747	+
Sigma70	b1745	+
Sigma70	b1748	+
Sigma70	b1746	+
Sigma70	b1744	+
Sigma70	b3734	+
Sigma70	b3738	+
Sigma70	b3731	+
Sigma70	b3732	+
Sigma70	b3737	+
Sigma70	b3736	+
Sigma70	b3733	+
Sigma70	b3735	+
Sigma70	b3739	+
Sigma70	b1412	+
Sigma70	b4663	+
Sigma70	b2477	+
Sigma70	b2480	+
Sigma70	b3532	+
Sigma70	b3536	+
Sigma70	b3537	+
Sigma70	b3538	+
Sigma70	b3531	+
Sigma70	b4249	+
Sigma70	b0311	+
Sigma70	b0312	+
Sigma70	b0313	+
Sigma70	b0314	+
Sigma70	b4366	+
Sigma70	b2132	+
Sigma70	b1112	+
Sigma70	b0774	+
Sigma70	b0775	+
Sigma70	b0777	+
Sigma70	b0778	+
Sigma70	b0776	+
Sigma70	b1163	+
Sigma70	b1162	+
Sigma70	b0435	+
Sigma70	b1060	+
Sigma70	b3966	+
Sigma70	b0158	+
Sigma70	b4131	+
Sigma70	b4132	+
Sigma70	b4133	+
Sigma70	b0039	+
Sigma70	b0038	+
Sigma70	b0037	+
Sigma70	b0036	+
Sigma70	b0035	+
Sigma70	b0034	+
Sigma70	b0040	+
Sigma70	b0032	+
Sigma70	b0033	+
Sigma70	b2755	+
Sigma70	b2754	+
Sigma70	b2760	+
Sigma70	b2759	+
Sigma70	b2758	+
Sigma70	b2757	+
Sigma70	b2756	+
Sigma70	b1987	+
Sigma70	b1000	+
Sigma70	b0999	+
Sigma70	b2201	+
Sigma70	b2200	+
Sigma70	b2199	+
Sigma70	b2198	+
Sigma70	b2197	+
Sigma70	b2196	+
Sigma70	b2195	+
Sigma70	b2194	+
Sigma70	b2143	+
Sigma70	b1731	+
Sigma70	b3338	+
Sigma70	b4585	+
Sigma70	b1741	+
Sigma70	b4225	+
Sigma70	b4224	+
Sigma70	b2155	+
Sigma70	b0882	+
Sigma70	b0437	+
Sigma70	b0438	+
Sigma70	b0910	+
Sigma70	b0921	+
Sigma70	b3634	+
Sigma70	b1992	+
Sigma70	b1991	+
Sigma70	b1993	+
Sigma70	b0337	+
Sigma70	b0336	+
Sigma70	b0484	+
Sigma70	b3816	+
Sigma70	b4213	+
Sigma70	b4484	+
Sigma70	b4397	+
Sigma70	b4398	+
Sigma70	b4399	+
Sigma70	b4400	+
Sigma70	b3357	+
Sigma70	b2417	+
Sigma70	b2535	+
Sigma70	b3556	+
Sigma70	b1823	+
Sigma70	b0880	+
Sigma70	b0623	+
Sigma70	b2696	+
Sigma70	b4408	+
Sigma70	b0598	+
Sigma70	b0575	+
Sigma70	b0574	+
Sigma70	b0572	+
Sigma70	b0573	+
Sigma70	b0571	+
Sigma70	b0570	+
Sigma70	b4137	+
Sigma70	b2313	+
Sigma70	b3806	+
Sigma70	b0733	+
Sigma70	b0734	+
Sigma70	b0886	+
Sigma70	b0887	+
Sigma70	b0338	+
Sigma70	b0340	+
Sigma70	b0339	+
Sigma70	b0341	+
Sigma70	b0432	+
Sigma70	b0431	+
Sigma70	b0430	+
Sigma70	b0429	+
Sigma70	b0428	+
Sigma70	b2422	+
Sigma70	b1275	+
Sigma70	b2750	+
Sigma70	b2752	+
Sigma70	b3368	+
Sigma70	b2762	+
Sigma70	b2763	+
Sigma70	b2764	+
Sigma70	b2414	+
Sigma70	b2421	+
Sigma70	b2751	+
Sigma70	b2425	+
Sigma70	b2424	+
Sigma70	b2424	+
Sigma70	b2423	+
Sigma70	b3934	+
Sigma70	b0839	+
Sigma70	b1189	+
Sigma70	b1190	+
Sigma70	b3387	+
Sigma70	b3388	+
Sigma70	b2478	+
Sigma70	b0031	+
Sigma70	b0166	+
Sigma70	b2472	+
Sigma70	b3809	+
Sigma70	b3528	+
Sigma70	b3507	+
Sigma70	b4138	+
Sigma70	b4123	+
Sigma70	b3227	+
Sigma70	b4124	+
Sigma70	b4125	+
Sigma70	b0092	+
Sigma70	b3162	+
Sigma70	b3287	+
Sigma70	b3234	+
Sigma70	b3235	+
Sigma70	b4382	+
Sigma70	b4383	+
Sigma70	b4381	+
Sigma70	b4384	+
Sigma70	b2604	+
Sigma70	b1025	+
Sigma70	b1535	+
Sigma70	b1575	+
Sigma70	b1569	+
Sigma70	b0231	+
Sigma70	b4044	+
Sigma70	b0799	+
Sigma70	b1061	+
Sigma70	b0226	+
Sigma70	b4613	+
Sigma70	b3012	+
Sigma70	b0145	+
Sigma70	b0894	+
Sigma70	b0895	+
Sigma70	b0896	+
Sigma70	b1591	+
Sigma70	b3702	+
Sigma70	b3066	+
Sigma70	b3701	+
Sigma70	b3544	+
Sigma70	b3543	+
Sigma70	b3542	+
Sigma70	b3541	+
Sigma70	b3540	+
Sigma70	b0812	+
Sigma70	b3860	+
Sigma70	b2366	+
Sigma70	b2364	+
Sigma70	b2365	+
Sigma70	b1954	+
Sigma70	b1634	+
Sigma70	b3260	+
Sigma70	b3640	+
Sigma70	b0420	+
Sigma70	b3076	+
Sigma70	b3077	+
Sigma70	b0293	+
Sigma70	b1850	+
Sigma70	b1851	+
Sigma70	b1016	+
Sigma70	b1017	+
Sigma70	b4147	+
Sigma70	b2685	+
Sigma70	b2686	+
Sigma70	b2779	+
Sigma70	b0596	+
Sigma70	b0595	+
Sigma70	b0593	+
Sigma70	b0583	+
Sigma70	b0594	+
Sigma70	b0586	+
Sigma70	b0597	+
Sigma70	b0591	+
Sigma70	b3404	+
Sigma70	b2927	+
Sigma70	b2566	+
Sigma70	b4707	+
Sigma70	b2369	+
Sigma70	b2370	+
Sigma70	b3006	+
Sigma70	b3005	+
Sigma70	b0954	+
Sigma70	b2323	+
Sigma70	b1092	+
Sigma70	b1095	+
Sigma70	b3256	+
Sigma70	b1091	+
Sigma70	b3845	+
Sigma70	b3846	+
Sigma70	b1805	+
Sigma70	b2342	+
Sigma70	b2341	+
Sigma70	b1187	+
Sigma70	b2912	+
Sigma70	b2925	+
Sigma70	b1474	+
Sigma70	b1475	+
Sigma70	b1476	+
Sigma70	b2525	+
Sigma70	b1385	+
Sigma70	b1384	+
Sigma70	b4293	+
Sigma70	b4292	+
Sigma70	b3408	+
Sigma70	b3409	+
Sigma70	b3410	+
Sigma70	b0584	+
Sigma70	b0592	+
Sigma70	b0588	+
Sigma70	b0590	+
Sigma70	b0587	+
Sigma70	b0589	+
Sigma70	b0585	+
Sigma70	b0150	+
Sigma70	b0153	+
Sigma70	b0151	+
Sigma70	b0152	+
Sigma70	b4367	+
Sigma70	b4314	+
Sigma70	b4312	+
Sigma70	b4316	+
Sigma70	b4314	+
Sigma70	b4313	+
Sigma70	b4318	+
Sigma70	b1237	+
Sigma70	b4320	+
Sigma70	b4315	+
Sigma70	b3261	+
Sigma70	b0805	+
Sigma70	b0041	+
Sigma70	b0042	+
Sigma70	b0043	+
Sigma70	b0044	+
Sigma70	b0028	+
Sigma70	b2895	+
Sigma70	b1072	+
Sigma70	b1073	+
Sigma70	b1074	+
Sigma70	b1075	+
Sigma70	b1076	+
Sigma70	b1077	+
Sigma70	b1078	+
Sigma70	b1079	+
Sigma70	b1080	+
Sigma70	b1081	+
Sigma70	b1071	+
Sigma70	b1070	+
Sigma70	b1879	+
Sigma70	b1880	+
Sigma70	b1891	+
Sigma70	b1892	+
Sigma70	b1878	+
Sigma70	b1922	+
Sigma70	b1924	+
Sigma70	b1937	+
Sigma70	b1938	+
Sigma70	b1939	+
Sigma70	b1940	+
Sigma70	b1941	+
Sigma70	b1942	+
Sigma70	b1943	+
Sigma70	b1944	+
Sigma70	b1945	+
Sigma70	b1946	+
Sigma70	b1947	+
Sigma70	b1948	+
Sigma70	b1949	+
Sigma70	b1950	+
Sigma70	b1925	+
Sigma70	b1926	+
Sigma70	b1921	+
Sigma70	b2000	+
Sigma70	b3288	+
Sigma70	b1334	+
Sigma70	b4699	+
Sigma70	b0904	+
Sigma70	b0048	+
Sigma70	b2153	+
Sigma70	b0142	+
Sigma70	b2169	+
Sigma70	b2374	+
Sigma70	b4154	+
Sigma70	b4153	+
Sigma70	b4152	+
Sigma70	b4151	+
Sigma70	b0172	+
Sigma70	b0239	+
Sigma70	b2167	+
Sigma70	b2169	+
Sigma70	b2168	+
Sigma70	b1905	+
Sigma70	b1902	+
Sigma70	b0094	+
Sigma70	b3178	+
Sigma70	b0084	+
Sigma70	b0890	+
Sigma70	b0083	+
Sigma70	b0093	+
Sigma70	b0089	+
Sigma70	b0095	+
Sigma70	b2800	+
Sigma70	b2802	+
Sigma70	b2803	+
Sigma70	b2799	+
Sigma70	b2801	+
Sigma70	b2805	+
Sigma70	b2804	+
Sigma70	b1612	+
Sigma70	b4122	+
Sigma70	b1611	+
Sigma70	b0683	+
Sigma70	b2661	+
Sigma70	b2663	+
Sigma70	b2662	+
Sigma70	b3512	+
Sigma70	b0759	+
Sigma70	b0757	+
Sigma70	b0756	+
Sigma70	b2943	+
Sigma70	b2837	+
Sigma70	b2151	+
Sigma70	b0758	+
Sigma70	b1779	+
Sigma70	b3124	+
Sigma70	b3126	+
Sigma70	b3127	+
Sigma70	b3125	+
Sigma70	b2094	+
Sigma70	b2093	+
Sigma70	b2092	+
Sigma70	b2091	+
Sigma70	b2096	+
Sigma70	b2095	+
Sigma70	b0124	+
Sigma70	b0507	+
Sigma70	b2808	+
Sigma70	b4443	+
Sigma70	b2904	+
Sigma70	b2903	+
Sigma70	b2479	+
Sigma70	b2905	+
Sigma70	b1761	+
Sigma70	b0987	+
Sigma70	b1101	+
Sigma70	b2976	+
Sigma70	b2980	+
Sigma70	b2979	+
Sigma70	b4468	+
Sigma70	b4467	+
Sigma70	b2977	+
Sigma70	b3429	+
Sigma70	b3432	+
Sigma70	b3430	+
Sigma70	b3428	+
Sigma70	b3431	+
Sigma70	b2388	+
Sigma70	b3729	+
Sigma70	b3730	+
Sigma70	b4441	+
Sigma70	b4456	+
Sigma70	b3870	+
Sigma70	b2553	+
Sigma70	b3868	+
Sigma70	b3869	+
Sigma70	b0809	+
Sigma70	b1651	+
Sigma70	b2241	+
Sigma70	b2242	+
Sigma70	b2243	+
Sigma70	b3426	+
Sigma70	b3927	+
Sigma70	b3926	+
Sigma70	b2239	+
Sigma70	b2240	+
Sigma70	b3925	+
Sigma70	b2556	+
Sigma70	b0720	+
Sigma70	b3212	+
Sigma70	b3213	+
Sigma70	b3214	+
Sigma70	b0655	+
Sigma70	b0654	+
Sigma70	b0653	+
Sigma70	b0652	+
Sigma70	b3969	+
Sigma70	b2400	+
Sigma70	b0144	+
Sigma70	b0514	+
Sigma70	b0509	+
Sigma70	b2551	+
Sigma70	b3560	+
Sigma70	b3559	+
Sigma70	b3978	+
Sigma70	b1911	+
Sigma70	b3648	+
Sigma70	b2029	+
Sigma70	b3437	+
Sigma70	b4321	+
Sigma70	b3438	+
Sigma70	b3415	+
Sigma70	b4476	+
Sigma70	b3413	+
Sigma70	b3500	+
Sigma70	b3385	+
Sigma70	b0755	+
Sigma70	b3608	+
Sigma70	b0238	+
Sigma70	b2579	+
Sigma70	b3181	+
Sigma70	b1064	+
Sigma70	b3610	+
Sigma70	b1654	+
Sigma70	b3323	+
Sigma70	b3322	+
Sigma70	b3324	+
Sigma70	b3325	+
Sigma70	b3326	+
Sigma70	b3327	+
Sigma70	b3328	+
Sigma70	b3329	+
Sigma70	b3330	+
Sigma70	b3331	+
Sigma70	b3332	+
Sigma70	b3333	+
Sigma70	b3334	+
Sigma70	b3335	+
Sigma70	b2507	+
Sigma70	b2508	+
Sigma70	b2706	+
Sigma70	b2708	+
Sigma70	b2231	+
Sigma70	b3699	+
Sigma70	b1967	+
Sigma70	b3511	+
Sigma70	b1210	+
Sigma70	b2436	+
Sigma70	b0475	+
Sigma70	b3867	+
Sigma70	b4175	+
Sigma70	b1132	+
Sigma70	b4174	+
Sigma70	b4173	+
Sigma70	b4172	+
Sigma70	b0460	+
Sigma70	b4532	+
Sigma70	b1438	+
Sigma70	b3082	+
Sigma70	b3083	+
Sigma70	b1507	+
Sigma70	b1508	+
Sigma70	b2024	+
Sigma70	b2022	+
Sigma70	b2025	+
Sigma70	b2023	+
Sigma70	b2026	+
Sigma70	b2309	+
Sigma70	b2307	+
Sigma70	b2306	+
Sigma70	b2308	+
Sigma70	b3797	+
Sigma70	b2514	+
Sigma70	b1237	+
Sigma70	b0107	+
Sigma70	b0106	+
Sigma70	b1562	+
Sigma70	b3203	+
Sigma70	b0125	+
Sigma70	b2526	+
Sigma70	b2527	+
Sigma70	b1379	+
Sigma70	b0139	+
Sigma70	b0440	+
Sigma70	b0972	+
Sigma70	b0973	+
Sigma70	b0974	+
Sigma70	b0975	+
Sigma70	b0976	+
Sigma70	b0977	+
Sigma70	b2996	+
Sigma70	b2995	+
Sigma70	b2994	+
Sigma70	b2993	+
Sigma70	b2992	+
Sigma70	b2991	+
Sigma70	b2990	+
Sigma70	b2997	+
Sigma70	b0508	+
Sigma70	b2712	+
Sigma70	b1136	+
Sigma70	b4268	+
Sigma70	b4264	+
Sigma70	b0912	+
Sigma70	b0026	+
Sigma70	b3852	+
Sigma70	b3277	+
Sigma70	b0202	+
Sigma70	b3069	+
Sigma70	b3772	+
Sigma70	b3671	+
Sigma70	b3774	+
Sigma70	b3771	+
Sigma70	b3770	+
Sigma70	ilvG_1	+
Sigma70	b3768	+
Sigma70	b0078	+
Sigma70	b0077	+
Sigma70	b3766	+
Sigma70	b3769	+
Sigma70	b3670	+
Sigma70	b4669	+
Sigma70	b3773	+
Sigma70	b2237	+
Sigma70	b0884	+
Sigma70	b3168	+
Sigma70	b1718	+
Sigma70	b1578	+
Sigma70	b1579	+
Sigma70	b2349	+
Sigma70	b4326	+
Sigma70	b1160	+
Sigma70	b0382	+
Sigma70	b2528	+
Sigma70	b2531	+
Sigma70	b2530	+
Sigma70	b2529	+
Sigma70	b2524	+
Sigma70	b0421	+
Sigma70	b0029	+
Sigma70	b4435	+
Sigma70	istR-1	+
Sigma70	b4616	+
Sigma70	b3672	+
Sigma70	b3942	+
Sigma70	b3137	+
Sigma70	b3132	+
Sigma70	b3617	+
Sigma70	b0698	+
Sigma70	b0697	+
Sigma70	b0696	+
Sigma70	b4513	+
Sigma70	b1215	+
Sigma70	b0918	+
Sigma70	b3198	+
Sigma70	b3197	+
Sigma70	b0342	+
Sigma70	b0345	+
Sigma70	b0343	+
Sigma70	b0344	+
Sigma70	b4036	+
Sigma70	b1279	+
Sigma70	b1280	+
Sigma70	b1113	+
Sigma70	b0074	+
Sigma70	b0073	+
Sigma70	b0072	+
Sigma70	b0071	+
Sigma70	b0075	+
Sigma70	b0076	+
Sigma70	b3798	+
Sigma70	b3174	+
Sigma70	b1909	+
Sigma70	b4043	+
Sigma70	b3454	+
Sigma70	b3455	+
Sigma70	b3457	+
Sigma70	b3460	+
Sigma70	b3458	+
Sigma70	b3456	+
Sigma70	b3605	+
Sigma70	b3603	+
Sigma70	b3604	+
Sigma70	b2936	+
Sigma70	b0891	+
Sigma70	b0116	+
Sigma70	b3200	+
Sigma70	b3201	+
Sigma70	b3199	+
Sigma70	b0054	+
Sigma70	b0096	+
Sigma70	b0889	+
Sigma70	b0027	+
Sigma70	b1511	+
Sigma70	b1512	+
Sigma70	b2838	+
Sigma70	b4024	+
Sigma70	b0874	+
Sigma70	b2156	+
Sigma70	b2839	+
Sigma70	b4129	+
Sigma70	b2404	+
Sigma70	b3580	+
Sigma70	b4034	+
Sigma70	b4033	+
Sigma70	b4032	+
Sigma70	b1620	+
Sigma70	b4035	+
Sigma70	b4037	+
Sigma70	b3417	+
Sigma70	b3416	+
Sigma70	b3571	+
Sigma70	b3418	+
Sigma70	b1621	+
Sigma70	b1622	+
Sigma70	b1613	+
Sigma70	b1817	+
Sigma70	b1818	+
Sigma70	b1819	+
Sigma70	b1531	+
Sigma70	b1532	+
Sigma70	b1530	+
Sigma70	b2783	+
Sigma70	b2782	+
Sigma70	b0806	+
Sigma70	b3236	+
Sigma70	b3513	+
Sigma70	b3514	+
Sigma70	b4119	+
Sigma70	b4120	+
Sigma70	b4118	+
Sigma70	b3930	+
Sigma70	b1655	+
Sigma70	b4013	+
Sigma70	b3939	+
Sigma70	b3008	+
Sigma70	b3941	+
Sigma70	b2114	+
Sigma70	b4019	+
Sigma70	b0198	+
Sigma70	b3938	+
Sigma70	b2942	+
Sigma70	b3940	+
Sigma70	b0199	+
Sigma70	b0197	+
Sigma70	b2816	+
Sigma70	b2815	+
Sigma70	b3171	+
Sigma70	b2814	+
Sigma70	b1114	+
Sigma70	b2149	+
Sigma70	b2150	+
Sigma70	b2148	+
Sigma70	b4698	+
Sigma70	b4242	+
Sigma70	b4702	+
Sigma70	b0347	+
Sigma70	b0348	+
Sigma70	b0349	+
Sigma70	b0350	+
Sigma70	b0352	+
Sigma70	b0351	+
Sigma70	b0346	+
Sigma70	b4171	+
Sigma70	b4427	+
Sigma70	b4439	+
Sigma70	b3742	+
Sigma70	b1594	+
Sigma70	b2127	+
Sigma70	b2558	+
Sigma70	b0730	+
Sigma70	b3741	+
Sigma70	b2392	+
Sigma70	b1821	+
Sigma70	b4705	+
Sigma70	b0763	+
Sigma70	b0764	+
Sigma70	b0765	+
Sigma70	b0827	+
Sigma70	b0826	+
Sigma70	b2115	+
Sigma70	b4233	+
Sigma70	b2684	+
Sigma70	b3021	+
Sigma70	b3022	+
Sigma70	b0087	+
Sigma70	b0081	+
Sigma70	b3251	+
Sigma70	b3250	+
Sigma70	b3249	+
Sigma70	b2113	+
Sigma70	b1778	+
Sigma70	b3599	+
Sigma70	b3600	+
Sigma70	b3601	+
Sigma70	b0159	+
Sigma70	b3161	+
Sigma70	b0924	+
Sigma70	b0923	+
Sigma70	b0922	+
Sigma70	b0091	+
Sigma70	b0088	+
Sigma70	b0085	+
Sigma70	b0086	+
Sigma70	b0090	+
Sigma70	b3967	+
Sigma70	b2429	+
Sigma70	b2428	+
Sigma70	b2427	+
Sigma70	b4170	+
Sigma70	b3096	+
Sigma70	b2574	+
Sigma70	b1740	+
Sigma70	b0677	+
Sigma70	b0678	+
Sigma70	b0676	+
Sigma70	b0679	+
Sigma70	b3225	+
Sigma70	b3223	+
Sigma70	b3222	+
Sigma70	b3224	+
Sigma70	b2206	+
Sigma70	b2203	+
Sigma70	b2202	+
Sigma70	b2207	+
Sigma70	b2208	+
Sigma70	b2205	+
Sigma70	b2204	+
Sigma70	b1224	+
Sigma70	b1225	+
Sigma70	b1227	+
Sigma70	b1226	+
Sigma70	b1223	+
Sigma70	b1221	+
Sigma70	b1469	+
Sigma70	b1222	+
Sigma70	b1109	+
Sigma70	b1650	+
Sigma70	b1649	+
Sigma70	b2159	+
Sigma70	b0851	+
Sigma70	b0578	+
Sigma70	b3414	+
Sigma70	b0019	+
Sigma70	b0020	+
Sigma70	b3365	+
Sigma70	b3367	+
Sigma70	b3366	+
Sigma70	b2742	+
Sigma70	b1548	+
Sigma70	b3206	+
Sigma70	b2234	+
Sigma70	b2235	+
Sigma70	b4238	+
Sigma70	b2675	+
Sigma70	b2676	+
Sigma70	b4237	+
Sigma70	b2673	+
Sigma70	b2674	+
Sigma70	b0413	+
Sigma70	b4070	+
Sigma70	b4071	+
Sigma70	b4072	+
Sigma70	b4073	+
Sigma70	b4074	+
Sigma70	b4075	+
Sigma70	b4076	+
Sigma70	b1865	+
Sigma70	b2277	+
Sigma70	b2287	+
Sigma70	b2286	+
Sigma70	b2285	+
Sigma70	b2284	+
Sigma70	b2283	+
Sigma70	b2282	+
Sigma70	b2281	+
Sigma70	b2280	+
Sigma70	b2279	+
Sigma70	b2278	+
Sigma70	b2277	+
Sigma70	b2276	+
Sigma70	b2393	+
Sigma70	b2964	+
Sigma70	b3169	+
Sigma70	b0416	+
Sigma70	b4608	+
Sigma70	b0957	+
Sigma70	b2215	+
Sigma70	b3405	+
Sigma70	b0814	+
Sigma70	b1048	+
Sigma70	b1049	+
Sigma70	b1283	+
Sigma70	b1482	+
Sigma70	b1739	+
Sigma70	b4376	+
Sigma70	b2373	+
Sigma70	b4458	+
Sigma70	b1388	+
Sigma70	b1389	+
Sigma70	b1390	+
Sigma70	b1391	+
Sigma70	b1392	+
Sigma70	b1393	+
Sigma70	b1394	+
Sigma70	b1395	+
Sigma70	b1396	+
Sigma70	b1397	+
Sigma70	b1398	+
Sigma70	b1399	+
Sigma70	b1400	+
Sigma70	b3360	+
Sigma70	b0134	+
Sigma70	b0133	+
Sigma70	b0131	+
Sigma70	b3258	+
Sigma70	b2584	+
Sigma70	b3403	+
Sigma70	b2743	+
Sigma70	b0143	+
Sigma70	b0315	+
Sigma70	b0113	+
Sigma70	b2564	+
Sigma70	b4260	+
Sigma70	b0237	+
Sigma70	b2908	+
Sigma70	b3916	+
Sigma70	b0902	+
Sigma70	b0903	+
Sigma70	b4025	+
Sigma70	b2926	+
Sigma70	b0418	+
Sigma70	b1278	+
Sigma70	b2599	+
Sigma70	b2598	+
Sigma70	b0576	+
Sigma70	b4106	+
Sigma70	b4105	+
Sigma70	b4104	+
Sigma70	b4103	+
Sigma70	b4102	+
Sigma70	b4101	+
Sigma70	b4100	+
Sigma70	b4099	+
Sigma70	b4098	+
Sigma70	b4097	+
Sigma70	b4096	+
Sigma70	b4095	+
Sigma70	b4094	+
Sigma70	b4093	+
Sigma70	b4092	+
Sigma70	b0383	+
Sigma70	b0399	+
Sigma70	b0241	+
Sigma70	b1020	+
Sigma70	b0400	+
Sigma70	b3724	+
Sigma70	b2987	+
Sigma70	b3821	+
Sigma70	b1090	+
Sigma70	b0931	+
Sigma70	b3164	+
Sigma70	b1603	+
Sigma70	b1602	+
Sigma70	b0060	+
Sigma70	b0108	+
Sigma70	b3363	+
Sigma70	b0441	+
Sigma70	b1702	+
Sigma70	b0950	+
Sigma70	b0951	+
Sigma70	b2147	+
Sigma70	b2146	+
Sigma70	b1211	+
Sigma70	b4201	+
Sigma70	b3129	+
Sigma70	b3259	+
Sigma70	b1212	+
Sigma70	b3799	+
Sigma70	b4111	+
Sigma70	b0194	+
Sigma70	b2677	+
Sigma70	b2678	+
Sigma70	b2679	+
Sigma70	b0330	+
Sigma70	b1207	+
Sigma70	b4030	+
Sigma70	b0384	+
Sigma70	b1303	+
Sigma70	b3726	+
Sigma70	b3725	+
Sigma70	b3727	+
Sigma70	b3728	+
Sigma70	b1204	+
Sigma70	b2821	+
Sigma70	b1101	+
Sigma70	b2415	+
Sigma70	b2416	+
Sigma70	b0679	+
Sigma70	b4177	+
Sigma70	b1131	+
Sigma70	b2476	+
Sigma70	b4005	+
Sigma70	b0523	+
Sigma70	b2312	+
Sigma70	b4006	+
Sigma70	b0522	+
Sigma70	b2557	+
Sigma70	b2499	+
Sigma70	b2500	+
Sigma70	b1658	+
Sigma70	b1014	+
Sigma70	b1015	+
Sigma70	b1854	+
Sigma70	b1676	+
Sigma70	b1062	+
Sigma70	b0945	+
Sigma70	b1281	+
Sigma70	b0171	+
Sigma70	b3025	+
Sigma70	b3026	+
Sigma70	b0059	+
Sigma70	b3205	+
Sigma70	b0892	+
Sigma70	b3167	+
Sigma70	b3749	+
Sigma70	b3751	+
Sigma70	b3750	+
Sigma70	b3748	+
Sigma70	b3752	+
Sigma70	b3753	+
Sigma70	b2106	+
Sigma70	b2107	+
Sigma70	b2105	+
Sigma70	b1951	+
Sigma70	b2217	+
Sigma70	b2216	+
Sigma70	b4454	+
Sigma70	b3859	+
Sigma70	b2699	+
Sigma70	b2820	+
Sigma70	b2822	+
Sigma70	b2819	+
Sigma70	b3700	+
Sigma70	b3652	+
Sigma70	b2616	+
Sigma70	b2565	+
Sigma70	b2698	+
Sigma70	b2784	+
Sigma70	b1564	+
Sigma70	b1563	+
Sigma70	b3778	+
Sigma70	b3619	+
Sigma70	b3784	+
Sigma70	b3790	+
Sigma70	b3788	+
Sigma70	b3789	+
Sigma70	b3794	+
Sigma70	b3793	+
Sigma70	b3903	+
Sigma70	b3904	+
Sigma70	b3902	+
Sigma70	b3906	+
Sigma70	b3905	+
Sigma70	b3907	+
Sigma70	b1277	+
Sigma70	b0414	+
Sigma70	b0415	+
Sigma70	b0025	+
Sigma70	b2162	+
Sigma70	b0852	+
Sigma70	b2608	+
Sigma70	b3170	+
Sigma70	b3179	+
Sigma70	b0058	+
Sigma70	b1286	+
Sigma70	b2567	+
Sigma70	b1804	+
Sigma70	b1084	+
Sigma70	b2630	+
Sigma70	b2631	+
Sigma70	b3123	+
Sigma70	b3386	+
Sigma70	b4090	+
Sigma70	b4089	+
Sigma70	b3317	+
Sigma70	b3320	+
Sigma70	b3319	+
Sigma70	b4203	+
Sigma70	b3231	+
Sigma70	b3313	+
Sigma70	b3294	+
Sigma70	b2606	+
Sigma70	b1716	+
Sigma70	b3186	+
Sigma70	b3315	+
Sigma70	b3318	+
Sigma70	b2185	+
Sigma70	b3185	+
Sigma70	b3312	+
Sigma70	b1717	+
Sigma70	b3295	+
Sigma70	b3067	+
Sigma70	b2573	+
Sigma70	b3461	+
Sigma70	b3202	+
Sigma70	b2741	+
Sigma70	b3649	+
Sigma70	b0911	+
Sigma70	b0169	+
Sigma70	b3314	+
Sigma70	b3296	+
Sigma70	b4200	+
Sigma70	b3230	+
Sigma70	b3321	+
Sigma70	b3297	+
Sigma70	b3298	+
Sigma70	b3165	+
Sigma70	b2609	+
Sigma70	b3311	+
Sigma70	b4202	+
Sigma70	b3316	+
Sigma70	b3065	+
Sigma70	b3929	+
Sigma70	b4255	+
Sigma70	b3855	+
Sigma70	b3971	+
Sigma70	b3274	+
Sigma70	b3272	+
Sigma70	b0205	+
Sigma70	b3854	+
Sigma70	b3970	+
Sigma70	b3275	+
Sigma70	b0204	+
Sigma70	b3851	+
Sigma70	b3968	+
Sigma70	b3278	+
Sigma70	b0201	+
Sigma70	b3995	+
Sigma70	b2572	+
Sigma70	b2571	+
Sigma70	b2570	+
Sigma70	b0082	+
Sigma70	b1013	+
Sigma70	b1863	+
Sigma70	b4416	+
Sigma70	b4597	+
Sigma70	b4609	+
Sigma70	b4451	+
Sigma70	b4624	+
Sigma70	b1500	+
Sigma70	b0397	+
Sigma70	b0398	+
Sigma70	b0723	+
Sigma70	b0724	+
Sigma70	b0721	+
Sigma70	b0722	+
Sigma70	b1916	+
Sigma70	b3609	+
Sigma70	b3175	+
Sigma70	b2913	+
Sigma70	b0907	+
Sigma70	b0971	+
Sigma70	b1975	+
Sigma70	b2695	+
Sigma70	b0883	+
Sigma70	b1032	+
Sigma70	b0070	+
Sigma70	b0146	+
Sigma70	b3583	+
Sigma70	b3581	+
Sigma70	b3582	+
Sigma70	b0069	+
Sigma70	b4577	+
Sigma70	b4662	+
Sigma70	b1981	+
Sigma70	b4687	+
Sigma70	b4436	+
Sigma70	b4437	+
Sigma70	b4447	+
Sigma70	b4611	+
Sigma70	b2340	+
Sigma70	b3641	+
Sigma70	b3506	+
Sigma70	b3908	+
Sigma70	b1656	+
Sigma70	b1272	+
Sigma70	b4429	+
Sigma70	b4063	+
Sigma70	b4062	+
Sigma70	b2938	+
Sigma70	b2937	+
Sigma70	b0120	+
Sigma70	b0121	+
Sigma70	b3864	+
Sigma70	b3650	+
Sigma70	b1743	+
Sigma70	b2702	+
Sigma70	b2704	+
Sigma70	b2705	+
Sigma70	b2703	+
Sigma70	b2707	+
Sigma70	sroA	+
Sigma70	sroC	+
Sigma70	sroD	+
Sigma70	b4059	+
Sigma70	b2879	+
Sigma70	b2621	+
Sigma70	ssrS	+
Sigma70	b0936	+
Sigma70	b0933	+
Sigma70	b0934	+
Sigma70	b0935	+
Sigma70	b0937	+
Sigma70	b2669	+
Sigma70	b0726	+
Sigma70	b0727	+
Sigma70	b0728	+
Sigma70	b0729	+
Sigma70	b1684	+
Sigma70	b1683	+
Sigma70	b1682	+
Sigma70	b1681	+
Sigma70	b1679	+
Sigma70	b1680	+
Sigma70	b0958	+
Sigma70	b1434	+
Sigma70	b0959	+
Sigma70	b4347	+
Sigma70	b4625	+
Sigma70	b3836	+
Sigma70	b3838	+
Sigma70	b3839	+
Sigma70	b4483	+
Sigma70	b0068	+
Sigma70	b1920	+
Sigma70	b3616	+
Sigma70	b1546	+
Sigma70	b4414	+
Sigma70	b0417	+
Sigma70	b0067	+
Sigma70	b0066	+
Sigma70	b0002	+
Sigma70	b0003	+
Sigma70	b0004	+
Sigma70	b0001	+
Sigma70	b3979	+
Sigma70	b3976	+
Sigma70	b3273	+
Sigma70	b0244	+
Sigma70	b3708	+
Sigma70	b3709	+
Sigma70	b3707	+
Sigma70	b0461	+
Sigma70	b1252	+
Sigma70	b1274	+
Sigma70	b0997	+
Sigma70	b0996	+
Sigma70	b0998	+
Sigma70	b0995	+
Sigma70	b3919	+
Sigma70	b1229	+
Sigma70	b0605	+
Sigma70	b4240	+
Sigma70	b4239	+
Sigma70	b4241	+
Sigma70	b2607	+
Sigma70	b3651	+
Sigma70	b1260	+
Sigma70	b1261	+
Sigma70	b1262	+
Sigma70	b1263	+
Sigma70	b1264	+
Sigma70	b1265	+
Sigma70	b4393	+
Sigma70	b3384	+
Sigma70	b3166	+
Sigma70	b3781	+
Sigma70	b2582	+
Sigma70	b4168	+
Sigma70	b0170	+
Sigma70	b4355	+
Sigma70	b0411	+
Sigma70	b3061	+
Sigma70	b3062	+
Sigma70	b3063	+
Sigma70	b3339	+
Sigma70	b3980	+
Sigma70	b1386	+
Sigma70	b2600	+
Sigma70	b4054	+
Sigma70	b1907	+
Sigma70	b1323	+
Sigma70	b1231	+
Sigma70	b3977	+
Sigma70	b1230	+
Sigma70	b4040	+
Sigma70	b4039	+
Sigma70	b2232	+
Sigma70	b2907	+
Sigma70	b2906	+
Sigma70	b2311	+
Sigma70	b3831	+
Sigma70	b3452	+
Sigma70	b3453	+
Sigma70	b3450	+
Sigma70	b3451	+
Sigma70	b3449	+
Sigma70	b3666	+
Sigma70	b1618	+
Sigma70	b4193	+
Sigma70	b4194	+
Sigma70	b4195	+
Sigma70	b4196	+
Sigma70	b4197	+
Sigma70	b4198	+
Sigma70	b2744	+
Sigma70	b0675	+
Sigma70	b1184	+
Sigma70	b1183	+
Sigma70	b2498	+
Sigma70	b2497	+
Sigma70	b3495	+
Sigma70	b4058	+
Sigma70	b0779	+
Sigma70	b1913	+
Sigma70	b3813	+
Sigma70	b1914	+
Sigma70	b3091	+
Sigma70	b1521	+
Sigma70	b3092	+
Sigma70	b4322	+
Sigma70	b4323	+
Sigma70	b4324	+
Sigma70	b4258	+
Sigma70	b2401	+
Sigma70	b1665	+
Sigma70	b1666	+
Sigma70	b2402	+
Sigma70	b2403	+
Sigma70	b3633	+
Sigma70	b3628	+
Sigma70	b3621	+
Sigma70	b3620	+
Sigma70	b3631	+
Sigma70	b3615	+
Sigma70	b3626	+
Sigma70	b3622	+
Sigma70	b3627	+
Sigma70	b3630	+
Sigma70	b3632	+
Sigma70	b3629	+
Sigma70	b3623	+
Sigma70	b3625	+
Sigma70	b3624	+
Sigma70	b2059	+
Sigma70	b2058	+
Sigma70	b3786	+
Sigma70	b3787	+
Sigma70	b3791	+
Sigma70	b2062	+
Sigma70	b2061	+
Sigma70	b2060	+
Sigma70	b3792	+
Sigma70	b3793	+
Sigma70	b3785	+
Sigma70	b2407	+
Sigma70	b2406	+
Sigma70	b2405	+
Sigma70	b3811	+
Sigma70	b2509	+
Sigma70	b0422	+
Sigma70	b0122	+
Sigma70	b0157	+
Sigma70	b0140	+
Sigma70	b0232	+
Sigma70	b0233	+
Sigma70	b0234	+
Sigma70	b0225	+
Sigma70	b0277	+
Sigma70	b0389	+
Sigma70	b0434	+
Sigma70	b0419	+
Sigma70	b0447	+
Sigma70	b0511	+
Sigma70	b0513	+
Sigma70	b0602	+
Sigma70	b4511	+
Sigma70	b0786	+
Sigma70	b0850	+
Sigma70	b0853	+
Sigma70	b0917	+
Sigma70	b0970	+
Sigma70	b1036	+
Sigma70	b1214	+
Sigma70	b1203	+
Sigma70	b1205	+
Sigma70	b1220	+
Sigma70	b1213	+
Sigma70	b1254	+
Sigma70	b1255	+
Sigma70	b1257	+
Sigma70	b1282	+
Sigma70	b1287	+
Sigma70	b4523	+
Sigma70	b1536	+
Sigma70	b1537	+
Sigma70	b1497	+
Sigma70	b1498	+
Sigma70	b1499	+
Sigma70	b1501	+
Sigma70	b1576	+
Sigma70	b1577	+
Sigma70	b1547	+
Sigma70	b1567	+
Sigma70	b1568	+
Sigma70	b1728	+
Sigma70	b1781	+
Sigma70	b1797	+
Sigma70	b1862	+
Sigma70	b1864	+
Sigma70	b1846	+
Sigma70	b1848	+
Sigma70	b1970	+
Sigma70	b2017	+
Sigma70	b2085	+
Sigma70	b2083	+
Sigma70	b2152	+
Sigma70	b2236	+
Sigma70	b2371	+
Sigma70	b2372	+
Sigma70	b2375	+
Sigma70	b2471	+
Sigma70	b2605	+
Sigma70	b2603	+
Sigma70	b2840	+
Sigma70	b2852	+
Sigma70	b2909	+
Sigma70	b3130	+
Sigma70	b3221	+
Sigma70	b3257	+
Sigma70	b3356	+
Sigma70	b3441	+
Sigma70	b3518	+
Sigma70	b3535	+
Sigma70	b3547	+
Sigma70	b3574	+
Sigma70	b3575	+
Sigma70	b3576	+
Sigma70	b3577	+
Sigma70	b3578	+
Sigma70	b3579	+
Sigma70	b3611	+
Sigma70	b4558	+
Sigma70	b3810	+
Sigma70	b3812	+
Sigma70	b3866	+
Sigma70	b4026	+
Sigma70	b4027	+
Sigma70	b4028	+
Sigma70	b4029	+
Sigma70	b4068	+
Sigma70	b4167	+
Sigma70	b4670	+
Sigma70	b4365	+
Sigma70	b4567	+
Sigma70	b0296	+
Sigma70	b4506	+
Sigma70	b4671	+
Sigma70	b4522	+
Sigma70	b4599	+
Sigma70	b1587	+
Sigma70	b1588	+
Sigma70	b1589	+
Sigma70	b1590	+
Sigma70	b1593	+
Sigma70	b1816	+
Sigma70	b1796	+
Sigma70	b1824	+
Sigma70	b4539	+
Sigma70	b2211	+
Sigma70	b4547	+
Sigma70	b3011	+
Sigma70	b3095	+
Sigma70	b3070	+
Sigma70	b3196	+
Sigma70	b4685	+
Sigma70	b3830	+
Sigma70	b1973	+
Sigma70	b3469	+
Sigma70	b1859	+
Sigma70	b1858	+
Sigma70	b1852	+
SlyA	b1182	+
SoxR	b4063	-
SoxR	b4062	+
SoxR	b1611	+
SoxS	b0683	+
SoxS	b1531	+
SoxS	b1530	+
SoxS	b4396	-
SoxS	b4062	-
SoxS	b1276	+
SoxS	b0463	+
SoxS	b3699	+
SoxS	b0762	+
SoxS	b0684	+
SoxS	b2895	+
SoxS	b2169	+
SoxS	b1611	+
SoxS	b2237	+
SoxS	b1532	+
SoxS	b4439	+
SoxS	b2159	+
SoxS	b0851	+
SoxS	b0578	+
SoxS	b1377	+
SoxS	b4025	+
SoxS	b0871	+
SoxS	b0950	+
SoxS	b0951	+
SoxS	b1101	+
SoxS	b1277	+
SoxS	b0852	+
SoxS	b3908	+
SoxS	b3035	+
SoxS	b4637	+
SoxS	b3625	+
SoxS	b3624	+
SoxS	b0850	+
SoxS	b0853	+
SoxS	b1378	+
SoxS	b3036	+
SoxS	b3037	+
SoxS	b3038	+
SoxS	b1973	+
SoxS	b1852	+
StpA	b0076	-
StpA	b2669	-
StpA	b3721	-
StpA	b3722	-
StpA	b3723	-
StpA	b2912	-
StpA	ssrS	-
SutR	b1921	-
SutR	b1434	+
SutR	b1434	-
SutR	b3607	-
SutR	b1922	-
SutR	b1920	-
TdcA	b3118	+
TdcA	b3117	+
TdcA	b3116	+
TdcA	b3115	+
TdcA	b3114	+
TdcA	b3113	+
TdcA	b4471	+
TdcR	b3118	+
TdcR	b3117	+
TdcR	b3116	+
TdcR	b3115	+
TdcR	b3114	+
TdcR	b3113	+
TdcR	b4471	+
TorR	b3516	-
TorR	b0995	-
TorR	b3517	-
TorR	b3510	+
TorR	b3509	+
TorR	b3708	+
TorR	b3709	+
TorR	b3707	+
TorR	b0997	+
TorR	b0996	+
TorR	b0998	+
TorR	b3508	+
TreR	b4240	-
TreR	b4239	-
TrpR	b4393	-
TrpR	b1704	-
TrpR	b0388	-
TrpR	b0390	-
TrpR	b3161	-
TrpR	b1260	-
TrpR	b1261	-
TrpR	b1262	-
TrpR	b1263	-
TrpR	b1264	-
TrpR	b1265	-
TrpR	b0389	-
TyrR	b1323	-
TyrR	b2601	-
TyrR	b0754	-
TyrR	b0388	-
TyrR	b0390	-
TyrR	b0112	-
TyrR	b0048	+
TyrR	b3161	+
TyrR	b2600	-
TyrR	b4054	-
TyrR	b1907	+
TyrR	b1907	-
TyrR	b0389	-
UhpA	b3666	+
UidR	b1618	-
UidR	b1617	-
UidR	b1616	-
UidR	b1615	-
UlaR	b4193	-
UlaR	b4194	-
UlaR	b4195	-
UlaR	b4196	-
UlaR	b4197	-
UlaR	b4198	-
UlaR	b4192	-
UvrY	b4408	+
UvrY	b4457	+
UvrY	b3666	+
UvrY	b1501	+
UxuR	b4324	-
UxuR	b4321	-
UxuR	b4357	-
UxuR	b1617	-
UxuR	b1616	-
UxuR	b1615	-
UxuR	b4322	-
UxuR	b4323	-
XapR	b2407	+
XapR	b2406	+
XylR	b0064	-
XylR	b3569	+
XylR	b3565	+
XylR	b3564	+
XylR	b3566	+
XylR	b3567	+
XylR	b3568	+
YdeO	b3512	+
YdeO	b3515	+
YdeO	b1499	-
YdeO	b0980	+
YdeO	b0979	+
YdeO	b0978	+
YdeO	b4592	+
YdeO	b3507	+
YdeO	b0972	+
YdeO	b0973	+
YdeO	b0974	+
YdeO	b0975	+
YdeO	b0976	+
YdeO	b0977	+
YdeO	b3513	+
YdeO	b3514	+
YdeO	b1500	-
YdeO	b3506	+
YdeO	b3923	+
YdeO	b3922	+
YedW	b0571	+
YedW	b0575	+
YedW	b0574	+
YedW	b0572	+
YedW	b0573	+
YedW	b0570	+
YedW	b0432	-
YedW	b0431	-
YedW	b0430	-
YedW	b0429	-
YedW	b0428	-
YedW	b1970	+
YefM	b2017	-
YefM	b4539	-
YefM-YoeB	b2017	-
YefM-YoeB	b4539	-
YehT	b4354	+
YeiL	b2163	+
YiaJ	b3574	-
YiaJ	b3580	-
YiaJ	b3583	-
YiaJ	b3581	-
YiaJ	b3582	-
YiaJ	b3575	-
YiaJ	b3576	-
YiaJ	b3577	-
YiaJ	b3578	-
YiaJ	b3579	-
YjjQ	b1891	-
YjjQ	b1892	-
YjjQ	b2604	-
YjjQ	b0987	-
YjjQ	b2215	-
YjjQ	b0786	-
YjjQ	b4523	-
YjjQ	b2605	-
YjjQ	b2603	-
YjjQ	b4522	-
YpdB	b3547	+
YqhC	b3012	+
YqhC	b3011	+
YqjI	b3071	-
YqjI	b3070	-
ZntR	b3469	+
ZraR	b4004	+
ZraR	b4002	+
ZraR	b4003	+
Zur	b0296	-
Zur	b4506	-
Zur	b1973	-
Zur	b1857	-
Zur	b1859	-
Zur	b1858	-
